%!PS-Adobe-3.0 EPSF-3.0
%%Creator: GIMP PostScript file plugin V 1.17 by Peter Kirchgessner
%%Title: floor_map_7313.eps
%%CreationDate: Tue Oct  8 20:52:34 2013
%%DocumentData: Clean7Bit
%%LanguageLevel: 2
%%Pages: 1
%%BoundingBox: 14 14 671 593
%%EndComments
%%BeginProlog
% Use own dictionary to avoid conflicts
10 dict begin
%%EndProlog
%%Page: 1 1
% Translate for offset
14.173228346456694 14.173228346456694 translate
% Translate to begin of first scanline
0 577.91952179758005 translate
655.90866141732272 -577.91952179758005 scale
% Image geometry
656 578 8
% Transformation matrix
[ 656 0 0 578 0 0 ]
% Strings to hold RGB-samples per scanline
/rstr 656 string def
/gstr 656 string def
/bstr 656 string def
{currentfile /ASCII85Decode filter /RunLengthDecode filter rstr readstring pop}
{currentfile /ASCII85Decode filter /RunLengthDecode filter gstr readstring pop}
{currentfile /ASCII85Decode filter /RunLengthDecode filter bstr readstring pop}
true 3
%%BeginData:        53747 ASCII Bytes
colorimage
JcC<$JcC<$JcG9?J,~>
JcC<$JcC<$JcG9?J,~>
JcC<$JcC<$JcG9?J,~>
JcC<$JcC<$JcG9?J,~>
JcC<$JcC<$JcG9?J,~>
JcC<$JcC<$JcG9?J,~>
JcC<$JcC<$JcG9?J,~>
JcC<$JcC<$JcG9?J,~>
JcC<$JcC<$JcG9?J,~>
JcC<$JcC<$JcG9?J,~>
JcC<$JcC<$JcG9?J,~>
JcC<$JcC<$JcG9?J,~>
JcC<$JcC<$JcG9?J,~>
JcC<$JcC<$JcG9?J,~>
JcC<$JcC<$JcG9?J,~>
JcC<$JcC<$JcG9?J,~>
JcC<$JcC<$JcG9?J,~>
JcC<$JcC<$JcG9?J,~>
JcC<$JcC<$JcG9?J,~>
JcC<$JcC<$JcG9?J,~>
JcC<$JcC<$JcG9?J,~>
JcC<$JcC<$JcG9?J,~>
JcC<$JcC<$JcG9?J,~>
JcC<$JcC<$JcG9?J,~>
JcC<$JcC<$JcG9?J,~>
JcC<$JcC<$JcG9?J,~>
JcC<$JcC<$JcG9?J,~>
JcC<$JcC<$JcG9?J,~>
JcC<$JcC<$JcG9?J,~>
JcC<$JcC<$JcG9?J,~>
JcC<$JcC<$JcG9?J,~>
JcC<$JcC<$JcG9?J,~>
JcC<$JcC<$JcG9?J,~>
JcC<$JcC<$JcG9?J,~>
JcC<$JcC<$JcG9?J,~>
JcC<$JcC<$JcG9?J,~>
JcC<$JcC<$JcG9?J,~>
JcC<$JcC<$JcG9?J,~>
JcC<$JcC<$JcG9?J,~>
JcC<$JcC<$JcG9?J,~>
JcC<$JcC<$JcG9?J,~>
JcC<$JcC<$JcG9?J,~>
JcC<$JcC<$JcG9?J,~>
JcC<$JcC<$JcG9?J,~>
JcC<$JcC<$JcG9?J,~>
JcC<$JcC<$JcG9?J,~>
JcC<$JcC<$JcG9?J,~>
JcC<$JcC<$JcG9?J,~>
JcC<$JcC<$JcG9?J,~>
JcC<$JcC<$JcG9?J,~>
JcC<$JcC<$JcG9?J,~>
JcC<$JcC<$JcG9?J,~>
JcC<$JcC<$JcG9?J,~>
JcC<$JcC<$JcG9?J,~>
JcC<$JcC<$JcG9?J,~>
JcC<$JcC<$JcG9?J,~>
JcC<$JcC<$JcG9?J,~>
JcC<$JcC<$JcG9?J,~>
JcC<$JcC<$JcG9?J,~>
JcC<$JcC<$JcG9?J,~>
JcC<$JcC<$JcG9?J,~>
JcC<$JcC<$JcG9?J,~>
JcC<$JcC<$JcG9?J,~>
JcC<$JcC<$JcG9?J,~>
JcC<$JcC<$JcG9?J,~>
JcC<$JcC<$JcG9?J,~>
JcC<$JcC<$JcG9?J,~>
JcC<$JcC<$JcG9?J,~>
JcC<$JcC<$JcG9?J,~>
JcC<$JcC<$JcG9?J,~>
JcC<$JcC<$JcG9?J,~>
JcC<$JcC<$JcG9?J,~>
JcC<$JcC<$JcG9?J,~>
JcC<$JcC<$JcG9?J,~>
JcC<$JcC<$JcG9?J,~>
JcC<$JcC<$JcG9?J,~>
JcC<$JcC<$JcG9?J,~>
JcC<$JcC<$JcG9?J,~>
JcC<$JcC<$JcG9?J,~>
JcC<$JcC<$JcG9?J,~>
JcC<$JcC<$JcG9?J,~>
JcC<$JcC<$JcG9?J,~>
JcC<$JcC<$JcG9?J,~>
JcC<$JcC<$JcG9?J,~>
JcC<$JcC<$JcG9?J,~>
JcC<$JcC<$JcG9?J,~>
JcC<$JcC<$JcG9?J,~>
JcC<$JcC<$JcG9?J,~>
JcC<$JcC<$JcG9?J,~>
JcC<$JcC<$JcG9?J,~>
JcC<$JcC<$JcG9?J,~>
JcC<$JcC<$JcG9?J,~>
JcC<$JcC<$JcG9?J,~>
hZ(n%JcC<$JcC<$`rCP~>
hZ(n%JcC<$JcC<$`rCP~>
hZ(n%JcC<$JcC<$`rCP~>
huA6-P5p16JcC<$J,~>
huA6-P5p16JcC<$J,~>
huA6-P5p16JcC<$J,~>
huA6-P5p16JcC<$J,~>
huA6-P5p16JcC<$J,~>
huA6-P5p16JcC<$J,~>
huA6-OoU(5JcC?%J,~>
huA6-OoU(5JcC?%J,~>
huA6-OoU(5JcC?%J,~>
huCq$JcEpnquD<JJcC?%J,~>
huCq$JcEpnquD<JJcC?%J,~>
huCq$JcEpnquD<JJcC?%J,~>
huETSfDkaKJcEpnquD<JJcC?%J,~>
huETSfDkaKJcEpnquD<JJcC?%J,~>
huETSfDkaKJcEpnquD<JJcC?%J,~>
huETSfDkaKJcEpnquD<JJcC?%J,~>
huETSfDkaKJcEpnquD<JJcC?%J,~>
huETSfDkaKJcEpnquD<JJcC?%J,~>
huETSfDkaKJcEpnquD<JJcC?%J,~>
huETSfDkaKJcEpnquD<JJcC?%J,~>
huETSfDkaKJcEpnquD<JJcC?%J,~>
huETSfDkaKJcEpnquD<JJcC?%J,~>
huETSfDkaKJcEpnquD<JJcC?%J,~>
huETSfDkaKJcEpnquD<JJcC?%J,~>
huETSfDkaKJcEpnquD<JJcC?%J,~>
huETSfDkaKJcEpnquD<JJcC?%J,~>
huETSfDkaKJcEpnquD<JJcC?%J,~>
huETSfDkaKJcEpnquD<JJcC?%J,~>
huETSfDkaKJcEpnquD<JJcC?%J,~>
huETSfDkaKJcEpnquD<JJcC?%J,~>
huETSfDkaKJcEpnquD<JJcC?%J,~>
huETSfDkaKJcEpnquD<JJcC?%J,~>
huETSfDkaKJcEpnquD<JJcC?%J,~>
huETSfDkaKJcEpnquD<JJcC?%J,~>
huETSfDkaKJcEpnquD<JJcC?%J,~>
huETSfDkaKJcEpnquD<JJcC?%J,~>
huETSfDkaKJcEpnquD<JJcC?%J,~>
huETSfDkaKJcEpnquD<JJcC?%J,~>
huETSfDkaKJcEpnquD<JJcC?%J,~>
huETSfDkaKJcEpnquD<JJcC?%J,~>
huETSfDkaKJcEpnquD<JJcC?%J,~>
huETSfDkaKJcEpnquD<JJcC?%J,~>
huETSfDkaKJcEpnquD<JJcC?%J,~>
huETSfDkaKJcEpnquD<JJcC?%J,~>
huETSfDkaKJcEpnquD<JJcC?%J,~>
huETSfDkaKJcEpnquD<JJcC?%J,~>
huETSfDkaKJcEpnquD<JJcC?%J,~>
huETSfDkaKJcEpnquD<JJcC?%J,~>
huETSfDkaKJcEpnquD<JJcC?%J,~>
huETSfDkaKJcEpnquD<JJcC?%J,~>
huETSfDkaKJcEpnquD<JJcC?%J,~>
huETSfDkaKJcEpnquD<JJcC?%J,~>
huETSfDkaKJcEpnquD<JJcC?%J,~>
huETSfDkaKJcEpnquD<JJcC?%J,~>
huETSfDkaKJcEpnquD<JJcC?%J,~>
huETSfDkaKJcEpnquD<JJcC?%J,~>
huETSfDkaKJcEpnquD<JJcC?%J,~>
huETSfDkaKJcEpnquD<JJcC?%J,~>
huETSfDkaKJcEpnquD<JJcC?%J,~>
huETSfDkaKJcEpnquD<JJcC?%J,~>
huETSfDkaKJcEpnquD<JJcC?%J,~>
huETSfDkaKJcEpnquD<JJcC?%J,~>
huETSfDkaKJcEpnquD<JJcC?%J,~>
huETSfDkaKJcEpnquD<JJcC?%J,~>
huETSfDkaKJcEpnquD<JJcC?%J,~>
huETSfDkaKJcEpnquD<JJcC?%J,~>
huETSfDkaKJcEpnquD<JJcC?%J,~>
huETSfDkaKJcEpnquD<JJcC?%J,~>
huETSfDkaKJcEpnquD<JJcC?%J,~>
huETSfDkaKJcEpnquD<JJcC?%J,~>
huETSfDkaKJcEpnquD<JJcC?%J,~>
huETSfDkaKJcEpnquD<JJcC?%J,~>
huETSfDkaKJcEpnquD<JJcC?%J,~>
huETSfDkaKJcEpnquD<JJcC?%J,~>
huETSfDkaKJcEpnquD<JJcC?%J,~>
huETSfDkaKJcEpnquD<JJcC?%J,~>
huETSfDkaKJcEpnquD<JJcC?%J,~>
huETSfDkaKJcEpnquD<JJcC?%J,~>
huETSfDkaKJcEpnquD<JJcC?%J,~>
huETSfDkaKJcEpnquD<JJcC?%J,~>
huETSfDkaKJcEpnquD<JJcC?%J,~>
huETSfDkaKJcEpnquD<JJcC?%J,~>
huETSfDkaKJcEpnquD<JJcC?%J,~>
huETSfDkaKJcEpnquD<JJcC?%J,~>
huETSfDkaKJcEpnquD<JJcC?%J,~>
huETSfDkaKJcEpnquD<JJcC?%J,~>
huETSfDkaKJcEpnquD<JJcC?%J,~>
huETSfDkaKJcEpnquD<JJcC?%J,~>
huETSfDkaKJcEpnquD<JJcC?%J,~>
huETSfDkaKJcEpnquD<JJcC?%J,~>
huETSfDkaKJcEpnquD<JJcC?%J,~>
huETSfDkaKJcEpnquD<JJcC?%J,~>
huETSfDkaKJcEpnquD<JJcC?%J,~>
huETSfDkaKJcEpnquD<JJcC?%J,~>
huETSfDkaKJcEpnquD<JJcC?%J,~>
huETSfDkaKJcEpnquD<JJcC?%J,~>
huETSfDkaKJcEpnquD<JJcC?%J,~>
huETSfDkaKJcEpnquD<JJcC?%J,~>
huETSfDkaKJcEpnquD<JJcC?%J,~>
huETSfDkaKJcEpnquD<JJcC?%J,~>
huETSfDkaKJcEpnquD<JJcC?%J,~>
huETSfDkaKJcEpnquD<JJcC?%J,~>
huETSfDkaKJcEpnquD<JJcC?%J,~>
huETSfDkaKJcEpnquD<JJcC?%J,~>
huETSfDkaKJcEpnquD<JJcC?%J,~>
huETSfDkaKJcEpnquD<JJcC?%J,~>
huETSfDkaKJcEpnquD<JJcC?%J,~>
huETSfDkaKJcEpnquD<JJcC?%J,~>
huETSfDkaKJcEpnquD<JJcC?%J,~>
huETSfDkaKJcEpnquD<JJcC?%J,~>
huETSfDkaKJcEpnquD<JJcC?%J,~>
huETSfDkaKJcEpnquD<JJcC?%J,~>
huETSfDkaKJcEpnquD<JJcC?%J,~>
huETSfDkaKJcEpnquD<JJcC?%J,~>
huETSfDkaKJcEpnquD<JJcC?%J,~>
huETSfDkaKJcEpnquD<JJcC?%J,~>
huETSfDkaKJcEpnquD<JJcC?%J,~>
huETSfDkaKJcEpnquD<JJcC?%J,~>
huETSfDkaKJcEpnquD<JJcC?%J,~>
huETSfDkaKJcEpnquD<JJcC?%J,~>
huETSfDkaKJcEpnquD<JJcC?%J,~>
huETSfDkaKJcEpnquD<JJcC?%J,~>
huETSfDkaKJcEpnquD<JJcC?%J,~>
huETSfDkaKJcEpnquD<JJcC?%J,~>
huETSfDkaKJcEpnquD<JJcC?%J,~>
huETSfDkaKJcEpnquD<JJcC?%J,~>
huETSfDkaKJcEpnquD<JJcC?%J,~>
huETSfDkaKJcEpnquD<JJcC?%J,~>
huETSfDkaKJcEpnquD<JJcC?%J,~>
huETSfDkaKJcEpnquD<JJcC?%J,~>
huETSfDkaKJcEpnquD<JJcC?%J,~>
huETSfDkaKJcEpnquD<JJcC?%J,~>
huETSfDkaKJcEpnquH$^V#Z)HJcGECJ,~>
huETSfDkaKJcEpnquH$^V#Z)HJcGECJ,~>
huETSfDkaKJcEpnquH$^V#Z)HJcGECJ,~>
huETSfDkaKJcEpnquH$^!!(UM!!(LJ!!%TMJcGECJ,~>
huETSfDkaKJcEpnquH$^!!(UM!!(LJ!!%TMJcGECJ,~>
huETSfDkaKJcEpnquH$^!!(UM!!(LJ!!%TMJcGECJ,~>
huETSfDkaKJcEpnquH$^!!(UM!!(LJ!!%TMJcGECJ,~>
huETSfDkaKJcEpnquH$^!!(UM!!(LJ!!%TMJcGECJ,~>
huETSfDkaKJcEpnquH$^!!(UM!!(LJ!!%TMJcGECJ,~>
huETSfDkaKJcEpnquH$^!!(UM!!(LJ!!%TMJcGECJ,~>
huETSfDkaKJcEpnquH$^!!(UM!!(LJ!!%TMJcGECJ,~>
huETSfDkaKJcEpnquH$^!!(UM!!(LJ!!%TMJcGECJ,~>
huETSf)P^LJcF!pirB,[!7q/M!7UrJ!.k0$s7QDB~>
huETSf)P^LJcF!pirB,[!7q/M!7UrJ!.k0$s7QDB~>
huETSf)P^LJcF!pirB,[!7q/M!7UrJ!.k0$s7QDB~>
huETSec,ULJcF!phuM@.!!(LJJH2JGdJn^~>
huETSec,ULJcF!phuM@.!!(LJJH2JGdJn^~>
huETSec,ULJcF!phuM@.!!(LJJH2JGdJn^~>
huETSec,ULJcF$qJH16$VZ>0FJ,~>
huETSec,ULJcF$qJH16$VZ>0FJ,~>
huETSec,ULJcF$qJH16$VZ>0FJ,~>
huETSec,ULJcF'rh>l.,!!(LJJH2GFdf4g~>
huETSec,ULJcF'rh>l.,!!(LJJH2GFdf4g~>
huETSec,ULJcF'rh>l.,!!(LJJH2GFdf4g~>
huETSec,ULJcF*shZ*]W!7q/M!7Ut!!2BPBs*t~>
huETSec,ULJcF*shZ*]W!7q/M!7Ut!!2BPBs*t~>
huETSec,ULJcF*shZ*]W!7q/M!7Ut!!2BPBs*t~>
huETSec,ULJcF-tq>fUV!!(UM!!(LJJH2GFdf4g~>
huETSec,ULJcF-tq>fUV!!(UM!!(LJJH2GFdf4g~>
huETSec,ULJcF-tq>fUV!!(UM!!(LJJH2GFdf4g~>
huETSec,ULJcF0uq>fRU!!(UM!!(LJ!!)*[quD<JbQ%J?df4g~>
huETSec,ULJcF0uq>fRU!!(UM!!(LJ!!)*[quD<JbQ%J?df4g~>
huETSec,ULJcF0uq>fRU!!(UM!!(LJ!!)*[quD<JbQ%J?df4g~>
huETSec,ULJcF4!q>fOT!!(UM!!(LJ!!)*[quD<JbQ%J?df4g~>
huETSec,ULJcF4!q>fOT!!(UM!!(LJ!!)*[quD<JbQ%J?df4g~>
huETSec,ULJcF4!q>fOT!!(UM!!(LJ!!)*[quD<JbQ%J?df4g~>
huETSec,ULJcF7"q>fLS!!(UM!!(LJ!!)*[quD<JbQ%J?df4g~>
huETSec,ULJcF7"q>fLS!!(UM!!(LJ!!)*[quD<JbQ%J?df4g~>
huETSec,ULJcF7"q>fLS!!(UM!!(LJ!!)*[quD<JbQ%J?df4g~>
huETSec,ULJcF:#q>fIRV#]TVquD<JbQ%J?df4g~>
huETSec,ULJcF:#q>fIRV#]TVquD<JbQ%J?df4g~>
huETSec,ULJcF:#q>fIRV#]TVquD<JbQ%J?df4g~>
huETSec,ULJcF=$q>c*Hk5Y>ZJcEpnquG1FJ,~>
huETSec,ULJcF=$q>c*Hk5Y>ZJcEpnquG1FJ,~>
huETSec,ULJcF=$q>c*Hk5Y>ZJcEpnquG1FJ,~>
huETSec,ULJcF@%q>c*Hjo>5YJcEpnquG1FJ,~>
huETSec,ULJcF@%q>c*Hjo>5YJcEpnquG1FJ,~>
huETSec,ULJcF@%q>c*Hjo>5YJcEpnquG1FJ,~>
huETSec,ULJcFC&q>c*HjT#,XJcEpnquG1FJ,~>
huETSec,ULJcFC&q>c*HjT#,XJcEpnquG1FJ,~>
huETSec,ULJcFC&q>c*HjT#,XJcEpnquG1FJ,~>
huETSec,ULJcFF'q>c*Hj8]#WJcEpnquG1FJ,~>
huETSec,ULJcFF'q>c*Hj8]#WJcEpnquG1FJ,~>
huETSec,ULJcFF'q>c*Hj8]#WJcEpnquG1FJ,~>
huETSec,ULJcFI(q>c*HiW&lWJcEmmquG1FJ,~>
huETSec,ULJcFI(q>c*HiW&lWJcEmmquG1FJ,~>
huETSec,ULJcFI(q>c*HiW&lWJcEmmquG1FJ,~>
huETSec,ULJcFL)q>c*Hhu<ZVJcEjlquG1FJ,~>
huETSec,ULJcFL)q>c*Hhu<ZVJcEjlquG1FJ,~>
huETSec,ULJcFL)q>c*Hhu<ZVJcEjlquG1FJ,~>
huETSec,ULJcFO*q>c*HhZ!QUJcEjlquG1FJ,~>
huETSec,ULJcFO*q>c*HhZ!QUJcEjlquG1FJ,~>
huETSec,ULJcFO*q>c*HhZ!QUJcEjlquG1FJ,~>
huETSec,ULJcFR+q>c*Hh>[HTJcEjlquG1FJ,~>
huETSec,ULJcFR+q>c*Hh>[HTJcEjlquG1FJ,~>
huETSec,ULJcFR+q>c*Hh>[HTJcEjlquG1FJ,~>
huETSec,ULJcFU,q>c*Hh#@?SJcEjlquG1FJ,~>
huETSec,ULJcFU,q>c*Hh#@?SJcEjlquG1FJ,~>
huETSec,ULJcFU,q>c*Hh#@?SJcEjlquG1FJ,~>
huETSec,ULJcFX-q>c*Hg]%6RJcEjlquG1FJ,~>
huETSec,ULJcFX-q>c*Hg]%6RJcEjlquG1FJ,~>
huETSec,ULJcFX-q>c*Hg]%6RJcEjlquG1FJ,~>
huETSec,ULJcF^/q#H!GgA_-QJcEjlquG1FJ,~>
huETSec,ULJcF^/q#H!GgA_-QJcEjlquG1FJ,~>
huETSec,ULJcF^/q#H!GgA_-QJcEjlquG1FJ,~>
huETSec,ULJcFa0q#H!Gg&D$PJcEjlquG1FJ,~>
huETSec,ULJcFa0q#H!Gg&D$PJcEjlquG1FJ,~>
huETSec,ULJcFa0q#H!Gg&D$PJcEjlquG1FJ,~>
huETSec,ULJcFd1q#H!Gf`(pOJcEjlquG1FJ,~>
huETSec,ULJcFd1q#H!Gf`(pOJcEjlquG1FJ,~>
huETSec,ULJcFd1q#H!Gf`(pOJcEjlquG1FJ,~>
huETSec,ULJcFg2q#H!GfDbgNJcEjlquG1FJ,~>
huETSec,ULJcFg2q#H!GfDbgNJcEjlquG1FJ,~>
huETSec,ULJcFg2q#H!GfDbgNJcEjlquG1FJ,~>
huETSec,ULJcFj3q#H!Gf)G^MJcEjlquG1FJ,~>
huETSec,ULJcFj3q#H!Gf)G^MJcEjlquG1FJ,~>
huETSec,ULJcFj3q#H!Gf)G^MJcEjlquG1FJ,~>
huETSec,ULJcFm4q>c*HeGfLKJcEjlquG1FJ,~>
huETSec,ULJcFm4q>c*HeGfLKJcEjlquG1FJ,~>
huETSec,ULJcFm4q>c*HeGfLKJcEjlquG1FJ,~>
huETSec,ULJcFp5q>c*He,KCJJcEjlquG1FJ,~>
huETSec,ULJcFp5q>c*He,KCJJcEjlquG1FJ,~>
huETSec,ULJcFp5q>c*He,KCJJcEjlquG1FJ,~>
huETSec,ULJcFs6q>c*Hdf0:IJcEjlquG1FJ,~>
huETSec,ULJcFs6q>c*Hdf0:IJcEjlquG1FJ,~>
huETSec,ULJcFs6q>c*Hdf0:IJcEjlquG1FJ,~>
huETSec,ULJcG!7q>c*HdJj1HJcEjlquG1FJ,~>
huETSec,ULJcG!7q>c*HdJj1HJcEjlquG1FJ,~>
huETSec,ULJcG!7q>c*HdJj1HJcEjlquG1FJ,~>
huETSec,ULJcG$8q>c*Hd/O(GJcEjlquG1FJ,~>
huETSec,ULJcG$8q>c*Hd/O(GJcEjlquG1FJ,~>
huETSec,ULJcG$8q>c*Hd/O(GJcEjlquG1FJ,~>
huETSf)P^LJcG*:q>c*Hci3tFJcEjlquG1FJ,~>
huETSf)P^LJcG*:q>c*Hci3tFJcEjlquG1FJ,~>
huETSf)P^LJcG*:q>c*Hci3tFJcEjlquG1FJ,~>
huETSfDkaKJcG0<q>c*HcMmkEJcEjlquG1FJ,~>
huETSfDkaKJcG0<q>c*HcMmkEJcEjlquG1FJ,~>
huETSfDkaKJcG0<q>c*HcMmkEJcEjlquG1FJ,~>
huETSfDkaKJcG3=q>c*Hc2RbDJcEjlquG1FJ,~>
huETSfDkaKJcG3=q>c*Hc2RbDJcEjlquG1FJ,~>
huETSfDkaKJcG3=q>c*Hc2RbDJcEjlquG1FJ,~>
huETSfDkaKJcG6>q>c*Hbl7YCJcEjlquG1FJ,~>
huETSfDkaKJcG6>q>c*Hbl7YCJcEjlquG1FJ,~>
huETSfDkaKJcG6>q>c*Hbl7YCJcEjlquG1FJ,~>
huETSfDkaKJcG9?q>c*HbPqPBJcEjlquG1FJ,~>
huETSfDkaKJcG9?q>c*HbPqPBJcEjlquG1FJ,~>
huETSfDkaKJcG9?q>c*HbPqPBJcEjlquG1FJ,~>
huETSfDkaKY5d#Pnc/FcJcEmm!!%TMaoD8=df4g~>
huETSfDkaKY5d#Pnc/FcJcEmm!!%TMaoD8=df4g~>
huETSfDkaKY5d#Pnc/FcJcEmm!!%TMaoD8=df4g~>
huETSfDkaKY5\J%fDbgNo)JOdJcEjl!!%TMaoD8=df4g~>
huETSfDkaKY5\J%fDbgNo)JOdJcEjl!!%TMaoD8=df4g~>
huETSfDkaKY5\J%fDbgNo)JOdJcEjl!!%TMaoD8=df4g~>
huETSfDkaKY5\J%fDbgNoDeXeJcEgk!!%TMaoD8=df4g~>
huETSfDkaKY5\J%fDbgNoDeXeJcEgk!!%TMaoD8=df4g~>
huETSfDkaKY5\J%fDbgNoDeXeJcEgk!!%TMaoD8=df4g~>
huCRodJrJ3s8N'!fDbmPs8VNfJcEdj!!%TMaoD8=df4g~>
huCRodJrJ3s8N'!fDbmPs8VNfJcEdj!!%TMaoD8=df4g~>
huCRodJrJ3s8N'!fDbmPs8VNfJcEdj!!%TMaoD8=df4g~>
huCOne,SV3!WN/Os6Tf;s2P'=!.k0ls82lFs*t~>
huCOne,SV3!WN/Os6Tf;s2P'=!.k0ls82lFs*t~>
huCOne,SV3!WN/Os6Tf;s2P'=!.k0ls82lFs*t~>
huA6-]E!N_`W#o<JcEjlquG1FJ,~>
huA6-]E!N_`W#o<JcEjlquG1FJ,~>
huA6-]E!N_`W#o<JcEjlquG1FJ,~>
huCOneGnV1fDk:>JcE[g!!%TMaoD8=df4g~>
huCOneGnV1fDk:>JcE[g!!%TMaoD8=df4g~>
huCOneGnV1fDk:>JcE[g!!%TMaoD8=df4g~>
huCRodf8M2!WN/Os7$)?s2+d9!.k0ls82lFs*t~>
huCRodf8M2!WN/Os7$)?s2+d9!.k0ls82lFs*t~>
huCRodf8M2!WN/Os7$)?s2+d9!.k0ls82lFs*t~>
huETSJcGcM!!(XN!!%TMZi:"*JcEjlquG1FJ,~>
huETSJcGcM!!(XN!!%TMZi:"*JcEjlquG1FJ,~>
huETSJcGcM!!(XN!!%TMZi:"*JcEjlquG1FJ,~>
huETSJcGcM!!(XN!!%TMZi:"*JcEjlquG1FJ,~>
huETSJcGcM!!(XN!!%TMZi:"*JcEjlquG1FJ,~>
huETSJcGcM!!(XN!!%TMZi:"*JcEjlquG1FJ,~>
huETSJcGcM!!(XN!!%TMZi:"*JcEjlquG1FJ,~>
huETSJcGcM!!(XN!!%TMZi:"*JcEjlquG1FJ,~>
huETSJcGcM!!(XN!!%TMZi:"*JcEjlquG1FJ,~>
huETSJcGcM!!(XN!!%TMZi:"*JcEjlquG1FJ,~>
huETSJcGcM!!(XN!!%TMZi:"*JcEjlquG1FJ,~>
huETSJcGcM!!(XN!!%TMZi:"*JcEjlquG1FJ,~>
huETSJcGcM!!(XN!!%TMZi:"*JcEjlquG1FJ,~>
huETSJcGcM!!(XN!!%TMZi:"*JcEjlquG1FJ,~>
huETSJcGcM!!(XN!!%TMZi:"*JcEjlquG1FJ,~>
huETSJcGcMeGt1#Zi:"*JcEjlquG1FJ,~>
huETSJcGcMeGt1#Zi:"*JcEjlquG1FJ,~>
huETSJcGcMeGt1#Zi:"*JcEjlquG1FJ,~>
huETSJcC<$L&V,QJcEjlquG1FJ,~>
huETSJcC<$L&V,QJcEjlquG1FJ,~>
huETSJcC<$L&V,QJcEjlquG1FJ,~>
huETSJcC<$L&V,QJcEjlquG1FJ,~>
huETSJcC<$L&V,QJcEjlquG1FJ,~>
huETSJcC<$L&V,QJcEjlquG1FJ,~>
huETSJcC<$L&V,QJcEjlquG1FJ,~>
huETSJcC<$L&V,QJcEjlquG1FJ,~>
huETSJcC<$L&V,QJcEjlquG1FJ,~>
huETSJcC<$L&V,QJcEjlquG1FJ,~>
huETSJcC<$L&V,QJcEjlquG1FJ,~>
huETSJcC<$L&V,QJcEjlquG1FJ,~>
huETSJcC<$L&V,QJcEjlquG1FJ,~>
huETSJcC<$L&V,QJcEjlquG1FJ,~>
huETSJcC<$L&V,QJcEjlquG1FJ,~>
huETSJcC<$L&V,QJcEjlquG1FJ,~>
huETSJcC<$L&V,QJcEjlquG1FJ,~>
huETSJcC<$L&V,QJcEjlquG1FJ,~>
huETSJcC<$L&V,QJcEjlquG1FJ,~>
huETSJcC<$L&V,QJcEjlquG1FJ,~>
huETSJcC<$L&V,QJcEjlquG1FJ,~>
huETSJcC<$L&V,QJcEjlquG1FJ,~>
huETSJcC<$L&V,QJcEjlquG1FJ,~>
huETSJcC<$L&V,QJcEjlquG1FJ,~>
huETSJcC<$L&V,QJcEjlquG1FJ,~>
huETSJcC<$L&V,QJcEjlquG1FJ,~>
huETSJcC<$L&V,QJcEjlquG1FJ,~>
huETSJcC<$L&V,QaT)5>L&_&Ndf4g~>
huETSJcC<$L&V,QaT)5>L&_&Ndf4g~>
huETSJcC<$L&V,QaT)5>L&_&Ndf4g~>
huETSJcC<$L&V,QaoD8=LB%/Odf4g~>
huETSJcC<$L&V,QaoD8=LB%/Odf4g~>
huETSJcC<$L&V,QaoD8=LB%/Odf4g~>
huETSJcC<$L&V,QaoD8=LB%/Odf4g~>
huETSJcC<$L&V,QaoD8=LB%/Odf4g~>
huETSJcC<$L&V,QaoD8=LB%/Odf4g~>
huETSJcC<$LB%5Qb5_A>LB%/Odf4g~>
huETSJcC<$LB%5Qb5_A>LB%/Odf4g~>
huETSJcC<$LB%5Qb5_A>LB%/Odf4g~>
huETSJcC<$L]@8PbQ%J?LB%/Odf4g~>
huETSJcC<$L]@8PbQ%J?LB%/Odf4g~>
huETSJcC<$L]@8PbQ%J?LB%/Odf4g~>
huETSJcC<$L]@8PbQ%J?LB%/Odf4g~>
huETSJcC<$L]@8PbQ%J?LB%/Odf4g~>
huETSJcC<$L]@8PbQ%J?LB%/Odf4g~>
huETSJcC<$L]@8PbQ%J?LB%/Odf4g~>
huETSJcC<$L]@8PbQ%J?LB%/Odf4g~>
huETSJcC<$L]@8PbQ%J?LB%/Odf4g~>
huETSJcC<$L]@8PbQ%J?LB%/Odf4g~>
huETSJcC<$L]@8PbQ%J?LB%/Odf4g~>
huETSJcC<$L]@8PbQ%J?LB%/Odf4g~>
huETSJcC<$L]@8PbQ%J?LB%/Odf4g~>
huETSJcC<$L]@8PbQ%J?LB%/Odf4g~>
huETSJcC<$L]@8PbQ%J?LB%/Odf4g~>
huETSJcC<$L]@8PbQ%J?LB%/Odf4g~>
huETSJcC<$L]@8PbQ%J?LB%/Odf4g~>
huETSJcC<$L]@8PbQ%J?LB%/Odf4g~>
huETSJcC<$L]@8PbQ%J?LB%/Odf4g~>
huETSJcC<$L]@8PbQ%J?LB%/Odf4g~>
huETSJcC<$L]@8PbQ%J?LB%/Odf4g~>
huETSJcC<$L]@8PbQ%J?LB%/Odf4g~>
huETSJcC<$L]@8PbQ%J?LB%/Odf4g~>
huETSJcC<$L]@8PbQ%J?LB%/Odf4g~>
huETSJcC<$L]@8PbQ%J?LB%/Odf4g~>
huETSJcC<$L]@8PbQ%J?LB%/Odf4g~>
huETSJcC<$L]@8PbQ%J?LB%/Odf4g~>
huETSJcC<$L]@8PbQ%J?LB%/Odf4g~>
huETSJcC<$L]@8PbQ%J?LB%/Odf4g~>
huETSJcC<$L]@8PbQ%J?LB%/Odf4g~>
huETSJcC<$L]@8PbQ%J?LB%/Odf4g~>
huETSJcC<$L]@8PbQ%J?LB%/Odf4g~>
huETSJcC<$L]@8PbQ%J?LB%/Odf4g~>
huETSJcC<$L]@8PbQ%J?LB%/Odf4g~>
huETSJcC<$L]@8PbQ%J?LB%/Odf4g~>
huETSJcC<$L]@8PbQ%J?LB%/Odf4g~>
huETSJcC<$L]@8PbQ%J?LB%/Odf4g~>
huETSJcC<$L]@8PbQ%J?LB%/Odf4g~>
huETSJcC<$L]@8PbQ%J?LB%/Odf4g~>
huETSJcC<$L]@8PbQ%J?LB%/Odf4g~>
huETSJcC<$L]@8PbQ%J?LB%/Odf4g~>
huETSJcC<$L]@8PbQ%J?LB%/Odf4g~>
huETSJcC<$L]@8PbQ%J?LB%/Odf4g~>
huETSJcC<$L]@8PbQ%J?LB%/Odf4g~>
huETSJcC<$L]@8PbQ%J?LB%/Odf4g~>
huETSJcC<$L]@8PbQ%J?LB%/Odf4g~>
huETSJcC<$L]@8PbQ%J?LB%/Odf4g~>
huETSJcC<$L]@8PbQ%J?LB%/Odf4g~>
huETSJcC<$L]@8PbQ%J?LB%/Odf4g~>
huETSJcC<$L]@8PbQ%J?LB%/Odf4g~>
huETSJcC<$L]@8PbQ%J?LB%/Odf4g~>
huETSJcC<$L]@8PbQ%J?LB%/Odf4g~>
huETSJcC<$L]@8PbQ%J?LB%/Odf4g~>
huETSJcC<$L]@8PbQ%J?LB%/Odf4g~>
huETSJcC<$L]@8PbQ%J?LB%/Odf4g~>
huETSJcC<$L]@8PbQ%J?LB%/Odf4g~>
huETSJcC<$L]@8PbQ%J?LB%/Odf4g~>
huETSJcC<$L]@8PbQ%J?LB%/Odf4g~>
huETSJcC<$L]@8PbQ%J?LB%/Odf4g~>
huETSJcC<$L]@8PbQ%J?LB%/Odf4g~>
huETSJcC<$L];o*_#Vp`J,~>
huETSJcC<$L];o*_#Vp`J,~>
huETSJcC<$L];o*_#Vp`J,~>
huETSJcC<$L];o*_#Vp`J,~>
huETSJcC<$L];o*_#Vp`J,~>
huETSJcC<$L];o*_#Vp`J,~>
huETSJcC<$L];o*_#Vp`J,~>
huETSJcC<$L];o*_#Vp`J,~>
huETSJcC<$L];o*_#Vp`J,~>
huETSJcC<$L];o*_#Vp`J,~>
huETSJcC<$L];o*_#Vp`J,~>
huETSJcC<$L];o*_#Vp`J,~>
huETSJcC<$L];o*_>r!`J,~>
huETSJcC<$L];o*_>r!`J,~>
huETSJcC<$L];o*_>r!`J,~>
huETSJcC<$L]@8PJcD):J,~>
huETSJcC<$L]@8PJcD):J,~>
huETSJcC<$L]@8PJcD):J,~>
huETSJcC<$L]@8PJcD):J,~>
huETSJcC<$L]@8PJcD):J,~>
huETSJcC<$L]@8PJcD):J,~>
huETSJcC<$L]@8PJcD):J,~>
huETSJcC<$L]@8PJcD):J,~>
huETSJcC<$L]@8PJcD):J,~>
huETSJcC<$L]@8PJcD):J,~>
huETSJcC<$L]@8PJcD):J,~>
huETSJcC<$L]@8PJcD):J,~>
huETSJcC<$L]@8PJcD):J,~>
huETSJcC<$L]@8PJcD):J,~>
huETSJcC<$L]@8PJcD):J,~>
huETSJcC<$L]@8PJcD):J,~>
huETSJcC<$L]@8PJcD):J,~>
huETSJcC<$L]@8PJcD):J,~>
huETSJcC<$L]@8PJcD):J,~>
huETSJcC<$L]@8PJcD):J,~>
huETSJcC<$L]@8PJcD):J,~>
huETSJcC<$L]@8PJcD):J,~>
huETSJcC<$L]@8PJcD):J,~>
huETSJcC<$L]@8PJcD):J,~>
huETSJcC<$L]@8PJcD):J,~>
huETSJcC<$L]@8PJcD):J,~>
huETSJcC<$L]@8PJcD):J,~>
huETSJcC<$L]@8PJcD):J,~>
huETSJcC<$L]@8PJcD):J,~>
huETSJcC<$L]@8PJcD):J,~>
huETSJcC<$L]@8PJcD):J,~>
huETSJcC<$L]@8PJcD):J,~>
huETSJcC<$L]@8PJcD):J,~>
huETSJcC<$L]@8PJcD):J,~>
huETSJcC<$L]@8PJcD):J,~>
huETSJcC<$L]@8PJcD):J,~>
huETSJcC<$L]@8PJcD):J,~>
huETSJcC<$L]@8PJcD):J,~>
huETSJcC<$L]@8PJcD):J,~>
huETSJcC<$L]@8PJcD):J,~>
huETSJcC<$L]@8PJcD):J,~>
huETSJcC<$L]@8PJcD):J,~>
huETSJcC<$L]@8PJcD):J,~>
huETSJcC<$L]@8PJcD):J,~>
huETSJcC<$L]@8PJcD):J,~>
huETSJcC<$L]@8PJcD):J,~>
huETSJcC<$L]@8PJcD):J,~>
huETSJcC<$L]@8PJcD):J,~>
huETSJcC<$L]@8PJcD):J,~>
huETSJcC<$L]@8PJcD):J,~>
huETSJcC<$L]@8PJcD):J,~>
huETSJcC<$L]@8PJcD):J,~>
huETSJcC<$L]@8PJcD):J,~>
huETSJcC<$L]@8PJcD):J,~>
huETSJcC<$L]@8PJcD):J,~>
huETSJcC<$L]@8PJcD):J,~>
huETSJcC<$L]@8PJcD):J,~>
huETSJcC<$L]@8PJcD):J,~>
huETSJcC<$L]@8PJcD):J,~>
huETSJcC<$L]@8PJcD):J,~>
huETSJcC<$L]@8PJcD):J,~>
huETSJcC<$L]@8PJcD):J,~>
huETSJcC<$L]@8PJcD):J,~>
huETSJcC<$L]@8PJcD):J,~>
huETSJcC<$L]@8PJcD):J,~>
huETSJcC<$L]@8PJcD):J,~>
huETSJcC<$L]@8PJcD):J,~>
huETSJcC<$L]@8PJcD):J,~>
huETSJcC<$L]@8PJcD):J,~>
huETSJcC<$L]@8PJcD):J,~>
huETSJcC<$L]@8PJcD):J,~>
huETSJcC<$L]@8PJcD):J,~>
huETSJcC<$L]@8PJcD):J,~>
huETSJcC<$L]@8PJcD):J,~>
huETSJcC<$L]@8PJcD):J,~>
huETSJcC<$L]@8PJcD):J,~>
huETSJcC<$L]@8PJcD):J,~>
huETSJcC<$L]@8PJcD):J,~>
huETSJcC<$L]@8PJcD):J,~>
huETSJcC<$L]@8PJcD):J,~>
huETSJcC<$L]@8PJcD):J,~>
huETSJcC<$L]@8PJcD):J,~>
huETSJcC<$L]@8PJcD):J,~>
huETSJcC<$L]@8PJcD):J,~>
huETSJcC<$L]@8PJcD):J,~>
huETSJcC<$L]@8PJcD):J,~>
huETSJcC<$L]@8PJcD):J,~>
huETSJcC<$L]@8PJcD):J,~>
huETSJcC<$L]@8PJcD):J,~>
huETSJcC<$L]@8PJcD):J,~>
huETSJcC<$L]@8PJcD):J,~>
huETSJcC<$L]@8PJcD):J,~>
huETSJcC<$L]@8PJcD):J,~>
huETSJcC<$L]@8PJcD):J,~>
huETSJcC<$L]@8PJcD):J,~>
huETSJcC<$L]@8PJcD):J,~>
huETSJcC<$L]@8PJcD):J,~>
huETSJcC<$L]@8PJcD):J,~>
huETSJcC<$L]@8PJcD):J,~>
huETSJcC<$L]@8PJcD):J,~>
huETSJcC<$L]@8PJcD):J,~>
huETSJcC<$L]@8PJcD):J,~>
huETSJcC<$L]@8PJcD):J,~>
huETSJcC<$L]@8PJcD):J,~>
huETSJcC<$L]@8PJcD):J,~>
huETSJcC<$L]@8PJcD):J,~>
huETSJcC<$L]@8PJcD):J,~>
huETSJcC<$L]@8PJcD):J,~>
huETSJcC<$L]@8PJcD):J,~>
huETSJcC<$L]@8PJcD):J,~>
huETSJcC<$L]@8PJcD):J,~>
huETSJcC<$L]@8PJcD):J,~>
huETSJcC<$L]@8PJcD):J,~>
huETSJcC<$L]@8PJcD):J,~>
huETSJcC<$L]@8PJcD):J,~>
huETSJcC<$L]@8PJcD):J,~>
huETSJcC<$L]@8PJcD):J,~>
huETSJcC<$L]@8PJcD):J,~>
huETSJcC<$L]@8PJcD):J,~>
huETSJcC<$L]@8PJcD):J,~>
huETSJcC<$L]@8PJcD):J,~>
huETSJcC<$L]@8PJcD):J,~>
huETSJcC<$L]@8PJcD):J,~>
huETSJcC<$L]@8PJcD):J,~>
huETSJcC<$L]@8PJcD):J,~>
huETSJcC<$L]@8PJcD):J,~>
huETSJcC<$L]@8PJcD):J,~>
huETSJcC<$L]@8PJcD):J,~>
huETSJcC<$L]@8PJcD):J,~>
huETSJcC<$L]@8PJcD):J,~>
huETSJcC<$L]@8PJcD):J,~>
huETSJcC<$L]@8PJcD):J,~>
huETSJcC<$L]@8PJcD):J,~>
huETSJcC<$L]@8PJcD):J,~>
huETSJcC<$L]@8PJcD):J,~>
huETSJcC<$L]@8PJcD):J,~>
huETSJcC<$L]@8PJcD):J,~>
huETSJcC<$L]@8PJcD):J,~>
huETSJcC<$L]@8PJcD):J,~>
huETSJcC<$L]@8PJcD):J,~>
huETSJcC<$L]@8PJcD):J,~>
huETSJcC<$L]@8PJcD):J,~>
huETSJcC<$L]@8PJcD):J,~>
huETSJcC<$L]@8PJcD):J,~>
huETSJcC<$L]@8PJcD):J,~>
huETSJcC<$L]@8PJcD):J,~>
huETSJcC<$L]@8PJcD):J,~>
huETSJcC<$L]@8PJcD):J,~>
huETSJcC<$L]@8PJcD):J,~>
huETSJcC<$L]@8PJcD):J,~>
huETSJcC<$L]@8PJcD):J,~>
huETSJcC<$L]@8PJcD):J,~>
huETSJcC<$L]@8PJcD):J,~>
huETSJcC<$L]@8PJcD):J,~>
huETSJcC<$L]@8PJcD):J,~>
huETSJcC<$L]@8PJcD):J,~>
huETSJcC<$L]@8PJcD):J,~>
huETSJcC<$L]@8PJcD):J,~>
huETSJcC<$L]@8PJcD):J,~>
huETSJcC<$L]@8PJcD):J,~>
huETSJcC<$L]@8PJcD):J,~>
huETSJcC<$L]@8PJcD):J,~>
huETSJcC<$L]@8PJcD):J,~>
huETSJcC<$L]@8PJcD):J,~>
huETSJcC<$L]@8PJcD):J,~>
huETSJcC<$L]@8PJcD):J,~>
huETSJcC<$L]@8PJcD):J,~>
huETSJcC<$L]@8PJcD):J,~>
huETSJcC<$L]@8PJcD):J,~>
huETSJcC<$L]@8PJcD):J,~>
huETSJcC<$L]@8PJcD):J,~>
huETSJcC<$L]@8PJcD):J,~>
huETSJcC<$L]@8PJcD):J,~>
huETSJcC<$L]@8PJcD):J,~>
huETSJcC<$L]@8PJcD):J,~>
huETSJcC<$L]@8PJcD):J,~>
huETSJcC<$L]@8PJcD):J,~>
huETSJcC<$L]@8PJcD):J,~>
huETSJcC<$L]@8PJcD):J,~>
huETSJcC<$L]@8PJcD):J,~>
huETSJcC<$L]@8PJcD):J,~>
huETSJcC<$L]@8PJcD):J,~>
huETSJcC<$L]@8PJcD):J,~>
huETSJcC<$L]@8PJcD):J,~>
huETSJcC<$L]@8PJcD):J,~>
huETSJcC<$L]@8PJcD):J,~>
huETSJcC<$L]@8PJcD):J,~>
huETSJcC<$L]@8PJcD):J,~>
huETSJcC<$L]@8PJcD):J,~>
huETSJcC<$L]@8PJcD):J,~>
huETSJcC<$L]@8PJcD):J,~>
huETSJcC<$L]@8PJcD):J,~>
huETSJcC<$L]@8PJcD):J,~>
huETSJcC<$L]@8PJcD):J,~>
huETSJcC<$L]@8PJcD):J,~>
huETSJcC<$L]@8PJcD):J,~>
huETSJcC<$L]@8PJcD):J,~>
huETSJcC<$L]@8PJcD):J,~>
huETSJcC<$L]@8PJcD):J,~>
huETSJcC<$L]@8PJcD):J,~>
huETSJcC<$L]@8PJcD):J,~>
huETSJcC<$L]@8PJcD):J,~>
huETSJcC<$L]@8PJcD):J,~>
huETSJcC<$L]@8PJcD):J,~>
huETSJcC<$L]@8PJcD):J,~>
huETSJcC<$L]@8PJcD):J,~>
huETSJcC<$L]@8PJcD):J,~>
huETSJcC<$L]@8PJcD):J,~>
huETSJcC<$L]@8PJcD):J,~>
huETSJcC<$L]@8PJcD):J,~>
huETSJcC<$L]@8PJcD):J,~>
huETSJcC<$L]@8PJcD):J,~>
huETSJcC<$L]@8PJcD):J,~>
huETSJcC<$L]@8PJcD):J,~>
huETSJcC<$L]@8PJcD):J,~>
huETSJcC<$L]@8PJcD):J,~>
huETSJcC<$L]@8PJcD):J,~>
huETSJcC<$L]@8PJcD):J,~>
huETSJcC<$L]@8PJcD):J,~>
huETSJcC<$L]@8PJcD):J,~>
huETSJcC<$L]@8PJcD):J,~>
huETSJcC<$L]@8PJcD):J,~>
huETSJcC<$L]@8PJcD):J,~>
huETSJcC<$L]@8PJcD):J,~>
huETSJcC<$L]@8PJcD):J,~>
huETSJcC<$L]@8PJcD):J,~>
huETSJcC<$L]@8PJcD):J,~>
huETSJcC<$L]@8PJcD):J,~>
huETSJcC<$L]@8PJcD):J,~>
huETSJcC<$L]@8PJcD):J,~>
huETSJcC<$L]@8PJcD):J,~>
huETSJcC<$L]@8PJcD):J,~>
huETSJcC<$L]@8PJcD):J,~>
huETSJcC<$L]@8PJcD):J,~>
huETSJcC<$L]@8PJcD):J,~>
huETSJcC<$L]@8PJcD):J,~>
huETSJcC<$L]@8PJcD):J,~>
huETSJcC<$L]@8PJcD):J,~>
huETSJcC<$L]@8PJcD):J,~>
huETSJcC<$L]@8PJcD):J,~>
huETSJcC<$L]@8PJcD):J,~>
huETSJcC<$L]@8PJcD):J,~>
huETSJcC<$L]@8PJcD):J,~>
huETSJcC<$L]@8PJcD):J,~>
huETSJcC<$L]@8PJcD):J,~>
huETSJcC<$L]@8PJcD):J,~>
huETSJcC<$L]@8PJcD):J,~>
huETSJcC<$L]@8PJcD):J,~>
huETSJcC<$L]@8PJcD):J,~>
huETSJcC<$L]@8PJcD):J,~>
huETSJcC<$L]@8PJcD):J,~>
huETSJcC<$L]@8PJcD):J,~>
huETSJcC<$L]@8PJcD):J,~>
huETSJcC<$L]@8PJcD):J,~>
huETSJcC<$L]@8PJcD):J,~>
huETSJcC<$L]@8PJcD):J,~>
huETSJcC<$L]@8PJcD):J,~>
huETSJcC<$L]@8PJcD):J,~>
huETSJcC<$L]@8PJcD):J,~>
huETSJcC<$L]@8PJcD):J,~>
huETSJcC<$L]@8PJcD):J,~>
huETSJcC<$L]@8PJcD):J,~>
huETSJcC<$L]@8PJcD):J,~>
huETSJcC<$L]@8PJcD):J,~>
huETSJcC<$L]@8PJcD):J,~>
huETSJcC<$L]@8PJcD):J,~>
huETSJcC<$L]@8PJcD):J,~>
huETSJcC<$L]@8PJcD):J,~>
huETSJcC<$L]@8PJcD):J,~>
huETSJcC<$L]@8PJcD):J,~>
huETSJcC<$L]@8PJcD):J,~>
huETSJcC<$L]@8PJcD):J,~>
huETSJcC<$L]@8PJcD):J,~>
huETSJcC<$L]@8PJcD):J,~>
huETSJcC<$L]@8PJcD):J,~>
huETSJcC<$L]@8PJcD):J,~>
huETSJcC<$L]@8PJcD):J,~>
huETSJcC<$L]@8PJcD):J,~>
huETSJcC<$L]@8PJcD):J,~>
huETSJcC<$L]@8PJcD):J,~>
huETSJcC<$L]@8PJcD):J,~>
huETSJcC<$L]@8PJcD):J,~>
huETSJcC<$L]@8PJcD):J,~>
huETSJcC<$L]@8PJcD):J,~>
huETSJcC<$L]@8PJcD):J,~>
huETSJcC<$L]@8PJcD):J,~>
huETSJcC<$L]@8PJcD):J,~>
huETSJcC<$L]@8PJcD):J,~>
huETSJcC<$L]@8PJcD):J,~>
huETSJcC<$L]@8PJcD):J,~>
huETSJcC<$L]@8PJcD):J,~>
huETSJcC<$L]@8PJcD):J,~>
huETSJcC<$L]@8PJcD):J,~>
huETSJcC<$L]@8PJcD):J,~>
huETSJcC<$L]@8PJcD):J,~>
huETSJcC<$L]@8PJcD):J,~>
huETSJcC<$L]@8PJcD):J,~>
huETSJcC<$L]@8PJcD):J,~>
huETSJcC<$L]@8PJcD):J,~>
huETSJcC<$L]@8PJcD):J,~>
huETSJcC<$L]@8PJcD):J,~>
huETSJcC<$L]@8PJcD):J,~>
huETSJcC<$L]@8PJcD):J,~>
huETSJcC<$L]@8PJcD):J,~>
huETSJcC<$L]@8PJcD):J,~>
huETSJcC<$L]@8PJcD):J,~>
huETSJcC<$L]@8PJcD):J,~>
huETSJcC<$L]@8PJcD):J,~>
huETSJcC<$L]@8PJcD):J,~>
huETSJcC<$L]@8PJcD):J,~>
huETSJcC<$L]@8PJcD):J,~>
huETSJcC<$L]@8PJcD):J,~>
huETSJcC<$L]@8PJcD):J,~>
huETSJcC<$L]@8PJcD):J,~>
huETSJcC<$L]@8PJcD):J,~>
huETSJcC<$L]@8PJcD):J,~>
huETSJcC<$L]@8PJcD):J,~>
huETSJcC<$L]@8PJcD):J,~>
huETSJcC<$L]@8PJcD):J,~>
huETSJcC<$L]@8PJcD):J,~>
huETSJcC<$L]@8PJcD):J,~>
huETSJcC<$L]@8PJcD):J,~>
huETSJcC<$L]@8PJcD):J,~>
huETSJcC<$L]@8PJcD):J,~>
huETSJcC<$L]@8PJcD):J,~>
huETSJcC<$L]@8PJcD):J,~>
huETSJcC<$L]@8PJcD):J,~>
huETSJcC<$L]@8PJcD):J,~>
huETSJcC<$L]@8PJcD):J,~>
huETSJcC<$L]@8PJcD):J,~>
huETSJcC<$L]@8PJcD):J,~>
huETSJcC<$L]@8PJcD):J,~>
huETSJcC<$L]@8PJcD):J,~>
huETSJcC<$L]@8PJcD):J,~>
huETSJcC<$L]@8PJcD):J,~>
huETSJcC<$L]@8PJcD):J,~>
huETSJcC<$L]@8PJcD):J,~>
huETSJcC<$L]@8PJcD):J,~>
huETSJcC<$L]@8PJcD):J,~>
huETSJcC<$L]@8PJcD):J,~>
huETSJcC<$L]@8PJcD):J,~>
huETSJcC<$L]@8PJcD):J,~>
huETSJcC<$L]@8PJcD):J,~>
huETSJcC<$L]@8PJcD):J,~>
huETSJcC<$L]@8PJcD):J,~>
huETSJcC<$L]@8PJcD):J,~>
huETSJcC<$L]@8PJcD):J,~>
huETSJcC<$L]@8PJcD):J,~>
huETSJcC<$L]@8PJcD):J,~>
huETSJcC<$L]@8PJcD):J,~>
huETSJcC<$L]@8PJcD):J,~>
huETSJcC<$L]@8PJcD):J,~>
huETSJcC<$L]@8PJcD):J,~>
huETSJcC<$L]@8PJcD):J,~>
huETSJcC<$L]@8PJcD):J,~>
huETSJcC<$L]@8PJcD):J,~>
huETSJcC<$L]@8PJcD):J,~>
huETSJcC<$L]@8PJcD):J,~>
huETSJcC<$L]@8PJcD):J,~>
huETSJcC<$L]@8PJcD):J,~>
huETSJcC<$L]@8PJcD):J,~>
huETSJcC<$L]@8PJcD):J,~>
huETSJcC<$L]@8PJcD):J,~>
huETSJcC<$L]@8PJcD):J,~>
huETSJcC<$L]@8PJcD):J,~>
huETSJcC<$L]@8PJcD):J,~>
huETSJcC<$L]@8PJcD):J,~>
huETSJcC<$L]@8PJcD):J,~>
huETSJcC<$L]@8PJcD):J,~>
huETSJcC<$L]@8PJcD):J,~>
huETSJcC<$L]@8PJcD):J,~>
huETSJcC<$L]@8PJcD):J,~>
huETSJcC<$L]@8PJcD):J,~>
huETSJcC<$L]@8PJcD):J,~>
huETSJcC<$L]@8PJcD):J,~>
huETSJcC<$L]@8PJcD):J,~>
huETSJcC<$L]@8PJcD):J,~>
huETSJcC<$L]@8PJcD):J,~>
huETSJcDqR_>ou'quD<JQiDR~>
huETSJcDqR_>ou'quD<JQiDR~>
huETSJcDqR_>ou'quD<JQiDR~>
huETSJcDtS^];^\`W1SiQiDR~>
huETSJcDtS^];^\`W1SiQiDR~>
huETSJcDtS^];^\`W1SiQiDR~>
huETSJcDtSJH4.!JcD):J,~>
huETSJcDtSJH4.!JcD):J,~>
huETSJcDtSJH4.!JcD):J,~>
huETSJcDtS^];a]`;kJhQiDR~>
huETSJcDtS^];a]`;kJhQiDR~>
huETSJcDtS^];a]`;kJhQiDR~>
huETSJcDtS_#Vg]`;kJhQiDR~>
huETSJcDtS_#Vg]`;kJhQiDR~>
huETSJcDtS_#Vg]`;kJhQiDR~>
huETSJcDtSquG(C!!(%=`W1SiQiDR~>
huETSJcDtSquG(C!!(%=`W1SiQiDR~>
huETSJcDtSquG(C!!(%=`W1SiQiDR~>
huETSJcDtSquG(C!!'A*!!(pVquD<JQiDR~>
huETSJcDtSquG(C!!'A*!!(pVquD<JQiDR~>
huETSJcDtSquG(C!!'A*!!(pVquD<JQiDR~>
huETSJcDtSquG(C!!'A*!!(pVquD<JQiDR~>
huETSJcDtSquG(C!!'A*!!(pVquD<JQiDR~>
huETSJcDtSquG(C!!'A*!!(pVquD<JQiDR~>
huETSJcDtSquG(C!!'A*!!(pVquD<JQiDR~>
huETSJcDtSquG(C!!'A*!!(pVquD<JQiDR~>
huETSJcDtSquG(C!!'A*!!(pVquD<JQiDR~>
huETSJcDtSquG(C!!'A*!!(pVquD<JQiDR~>
huETSJcDtSquG(C!!'A*!!(pVquD<JQiDR~>
huETSJcDtSquG(C!!'A*!!(pVquD<JQiDR~>
huETSJcDtSquG(C!!'A*!!(pVquD<JQiDR~>
huETSJcDtSquG(C!!'A*!!(pVquD<JQiDR~>
huETSJcDtSquG(C!!'A*!!(pVquD<JQiDR~>
huETSJcDtSquG(C!!'A*!!(pVquD<JQiDR~>
huETSJcDtSquG(C!!'A*!!(pVquD<JQiDR~>
huETSJcDtSquG(C!!'A*!!(pVquD<JQiDR~>
huETSJcDtSquG(C!!'A*!!(pVquD<JQiDR~>
huETSJcDtSquG(C!!'A*!!(pVquD<JQiDR~>
huETSJcDtSquG(C!!'A*!!(pVquD<JQiDR~>
huETSJcDtSquG(C!!'A*!!(pVquD<JQiDR~>
huETSJcDtSquG(C!!'A*!!(pVquD<JQiDR~>
huETSJcDtSquG(C!!'A*!!(pVquD<JQiDR~>
huETSJcDtSquG(C!!'A*!!(pVquD<JQiDR~>
huETSJcDtSquG(C!!'A*!!(pVquD<JQiDR~>
huETSJcDtSquG(C!!'A*!!(pVquD<JQiDR~>
huETSJcDtSquG(C!!'A*!!(pVquD<JQiDR~>
huETSJcDtSquG(C!!'A*!!(pVquD<JQiDR~>
huETSJcDtSquG(C!!'A*!!(pVquD<JQiDR~>
huETSJcDtSquG(C!!'A*!!(pVquD<JQiDR~>
huETSJcDtSquG(C!!'A*!!(pVquD<JQiDR~>
huETSJcDtSquG(C!!'A*!!(pVquD<JQiDR~>
huETSJcDtSquG(C!!'A*!!(pVquD<JQiDR~>
huETSJcDtSquG(C!!'A*!!(pVquD<JQiDR~>
huETSJcDtSquG(C!!'A*!!(pVquD<JQiDR~>
huETSJcDtSquG(C!!'A*!!(pVquD<JQiDR~>
huETSJcDtSquG(C!!'A*!!(pVquD<JQiDR~>
huETSJcDtSquG(C!!'A*!!(pVquD<JQiDR~>
huETSJcDtSquG(C!!'A*!!(pVquD<JQiDR~>
huETSJcDtSquG(C!!'A*!!(pVquD<JQiDR~>
huETSJcDtSquG(C!!'A*!!(pVquD<JQiDR~>
huETSJcDtSquG(C!!'A*!!(pVquD<JQiDR~>
huETSJcDtSquG(C!!'A*!!(pVquD<JQiDR~>
huETSJcDtSquG(C!!'A*!!(pVquD<JQiDR~>
huETSJcDtSquG(C!!'A*!!(pVquD<JQiDR~>
huETSJcDtSquG(C!!'A*!!(pVquD<JQiDR~>
huETSJcDtSquG(C!!'A*!!(pVquD<JQiDR~>
huETSJcDtSquG(C!!'A*!!(pVquD<JQiDR~>
huETSJcDtSquG(C!!'A*!!(pVquD<JQiDR~>
huETSJcDtSquG(C!!'A*!!(pVquD<JQiDR~>
huETSJcDtSquG(C!!'A*!!(pVquD<JQiDR~>
huETSJcDtSquG(C!!'A*!!(pVquD<JQiDR~>
huETSJcDtSquG(C!!'A*!!(pVquD<JQiDR~>
huETSJcDtSquG(C!!'A*!!(pVquD<JQiDR~>
huETSJcDtSquG(C!!'A*!!(pVquD<JQiDR~>
huETSJcDtSquG(C!!'A*!!(pVquD<JQiDR~>
huETSJcDtSquG(C!!'A*!!(pVquD<JQiDR~>
huETSJcDtSquG(C!!'A*!!(pVquD<JQiDR~>
huETSJcDtSquG(C!!'A*!!(pVquD<JQiDR~>
huETSJcDtSquG(C!!'A*!!(pVquD<JQiDR~>
huETSJcDtSquG(C!!'A*!!(pVquD<JQiDR~>
huETSJcDtSquG(C!!'A*!!(pVquD<JQiDR~>
huETSJcDtSquG(C!!'A*!!(pVquD<JQiDR~>
huETSJcDtSquG(C!!'A*!!(pVquD<JQiDR~>
huETSJcDtSquG(C!!'A*!!(pVquD<JQiDR~>
huETSJcDtSquG(C!!'A*!!(pVquD<JQiDR~>
huETSJcDtSquG(C!!'A*!!(pVquD<JQiDR~>
huETSJcDtSquG(C!!'A*!!(pVquD<JQiDR~>
huETSJcDtSquG(C!!'A*!!(pVquD<JQiDR~>
huETSJcDtSquG(C!!'A*!!(pVquD<JQiDR~>
huETSJcDtSquG(C!!'A*!!(pVquD<JQiDR~>
huETSJcDtSquG(C!!'A*!!(pVquD<JQiDR~>
huETSJcDtSquG(C!!'A*!!(pVquD<JQiDR~>
huETSJcDtSquG(C!!'A*!!(pVquD<JQiDR~>
huETSJcDtSquG(C!!'A*!!(pVquD<JQiDR~>
huETSJcDtSquG(C!!'A*!!(pVquD<JQiDR~>
huETSJcDtSquG(C!!'A*!!(pVquD<JQiDR~>
huETSJcDtSquG(C!!'A*!!(pVquD<JQiDR~>
huETSJcDtSquG(C!!'A*!!(pVquD<JQiDR~>
huETSJcDtSquG(C!!'A*!!(pVquD<JQiDR~>
huETSJcDtSquG(C!!'A*!!(pVquD<JQiDR~>
huETSJcDtSquG(C!!'A*!!(pVquD<JQiDR~>
huETSJcDtSquG(C!!'A*!!(pVquD<JQiDR~>
huETSJcDtSquG(C!!'A*!!(pVquD<JQiDR~>
huETSJcDtSquG(C!!'A*!!(pVquD<JQiDR~>
huETSJcDtSquG(C!!'A*!!(pVquD<JQiDR~>
huETSJcDtSquG(C!!'A*!!(pVquD<JQiDR~>
huETSJcDtSquG(C!!'A*!!(pVquD<JQiDR~>
huETSJcDtSquG(C!!'A*!!(pVquD<JQiDR~>
huETSJcDtSquG(C!!'A*!!(pVquD<JQiDR~>
huETSJcDtSquG(C!!'A*!!(pVquD<JQiDR~>
huETSJcDtSquG(C!!'A*!!(pVquD<JQiDR~>
huETSJcDtSquG(C!!'A*!!(pVquD<JQiDR~>
huETSJcDtSquG(C!!'A*!!(pVquD<JQiDR~>
huETSJcDtSquG(C!!'A*!!(pVquD<JQiDR~>
huETSJcDtSquG(C!!'A*!!(pVquD<JQiDR~>
huETSJcDtSquG(C!!'A*!!(pVquD<JQiDR~>
huETSJcDtSquG(C!!'A*!!(pVquD<JQiDR~>
huETSJcDtSquG(C!!'A*!!(pVquD<JQiDR~>
huETSJcDtSquG(C!!'A*!!(pVquD<JQiDR~>
huETSJcDtSquG(C!!'A*!!(pVquD<JQiDR~>
huETSJcDtSquG(C!!'A*!!(pVquD<JQiDR~>
huETSJcDtSquG(C!!'A*!!(pVquD<JQiDR~>
huETSJcDtSquG(C!!'A*!!(pVquD<JQiDR~>
huETSJcDtSquG(C!!'A*!!(pVquD<JQiDR~>
huETSJcDtSquG(C!!'A*!!(pVquD<JQiDR~>
huETSJcDtSquG(C!!'A*!!(pVquD<JQiDR~>
huETSJcDtSquG(C!!'A*!!(pVquD<JQiDR~>
huETSJcDtSquG(C!!'A*!!(pVquD<JQiDR~>
huETSJcDtSquG(C!!'A*!!(pVquD<JQiDR~>
huETSJcDtSquG(C!!'A*!!(pVquD<JQiDR~>
huETSJcDtSquG(C!!'A*!!(pVquD<JQiDR~>
huETSJcDtSquG(C!!'A*!!(pVquD<JQiDR~>
huETSJcDtSquG(C!!'A*!!(pVquD<JQiDR~>
huETSJcDtSquG(C!!'A*!!(pVquD<JQiDR~>
huETSJcDtSquG(C!!'A*!!(pVquD<JQiDR~>
huETSJcDtSquG(C!!'A*!!(pVquD<JQiDR~>
huETSJcDtSquG(C!!'A*!!(pVquD<JQiDR~>
huETSJcDtSquG(C!!'A*!!(pVquD<JQiDR~>
huETSJcDtSquG(C!!'A*!!(pVquD<JQiDR~>
huETSJcDtSquG(C!!'A*!!(pVquD<JQiDR~>
huETSJcDtSquG(C!!'A*!!(pVquD<JQiDR~>
huETSJcDtSquG(C!!'A*!!(pVquD<JQiDR~>
huETSJcDtSquG(C!!'A*!!(pVquD<JQiDR~>
huETSJcDtSquG(C!!'A*!!(pVquD<JQiDR~>
huETSJcDtSquG(C!!'A*!!(pVquD<JQiDR~>
huETSJcDtSquG(C!!'A*!!(pVquD<JQiDR~>
huETSJcDtSquG(C!!'A*!!(pVquD<JQiDR~>
huETSJcDtSquG(C!!'A*!!(pVquD<JQiDR~>
huETSJcDtSquG(C!!'A*!!(pVquD<JQiDR~>
huETSJcDtSquG(C!!'A*!!(pVquD<JQiDR~>
huETSJcDtSquG(C!!'A*!!(pVquD<JQiDR~>
huETSJcDtSquG(C!!'A*!!(pVquD<JQiDR~>
huETSJcDtSquG(C!!'A*!!(pVquD<JQiDR~>
huETSJcDtSquG(C!!'A*!!(pVquD<JQiDR~>
huETSJcDtSquG(C!!'A*!!(pVquD<JQiDR~>
huETSJcDtSquG(C!!'A*!!(pVquD<JQiDR~>
huETSJcDtSquG(C!!'A*!!(pVquD<JQiDR~>
huETSJcDtSquG(C!!'A*!!(pVquD<JQiDR~>
huETSJcDtSquG(C!!'A*!!(pVquD<JQiDR~>
huETSJcDtSquG(C!!'A*!!(pVquD<JQiDR~>
huETSJcDtSquG(C!!'A*!!(pVquD<JQiDR~>
huETSJcDtSquG(C!!'A*!!(pVquD<JQiDR~>
huETSJcDtSquG(C!!'A*!!(pVquD<JQiDR~>
huETSJcDtSquG(C!!'A*!!(pVquD<JQiDR~>
huETSJcDtSquG(C!!'A*!!(pVquD<JQiDR~>
huETSJcDtSquG(C!!'A*!!(pVquD<JQiDR~>
huETSJcDtSquG(C!!'A*!!(pVquD<JQiDR~>
huETSJcDtSquG(C!!'A*!!(pVquD<JQiDR~>
huETSJcDtSquG(C!!'A*!!(pVquD<JQiDR~>
huETSJcDtSquG(C!!'A*!!(pVquD<JQiDR~>
huETSJcDtSquG(C!!'A*!!(pVquD<JQiDR~>
huETSJcDtSquG(C!!'A*!!(pVquD<JQiDR~>
huETSJcDtSquG(C!!'A*!!(pVquD<JQiDR~>
huETSJcDtSquG(C!!'A*!!(pVquD<JQiDR~>
huETSJcDtSquG(C!!'A*f`6U'QiDR~>
huETSJcDtSquG(C!!'A*f`6U'QiDR~>
huETSJcDtSquG(C!!'A*f`6U'QiDR~>
huD7-JcF=$quG(C!!&\l!!)TiquD<JQiDR~>
huD7-JcF=$quG(C!!&\l!!)TiquD<JQiDR~>
huD7-JcF=$quG(C!!&\l!!)TiquD<JQiDR~>
huD4,JcF@%quG(C!!&\l!!)TiquD<JQiDR~>
huD4,JcF@%quG(C!!&\l!!)TiquD<JQiDR~>
huD4,JcF@%quG(C!!&\l!!)TiquD<JQiDR~>
huD4,JcF@%quG(C!!&\l!!)TiquD<JQiDR~>
huD4,JcF@%quG(C!!&\l!!)TiquD<JQiDR~>
huD4,JcF@%quG(C!!&\l!!)TiquD<JQiDR~>
huD4,JcF@%quG(C!!&\l!!)TiquD<JQiDR~>
huD4,JcF@%quG(C!!&\l!!)TiquD<JQiDR~>
huD4,JcF@%quG(C!!&\l!!)TiquD<JQiDR~>
huD4,JcF@%quG(C!!&\l!!)TiquD<JQiDR~>
huD4,JcF@%quG(C!!&\l!!)TiquD<JQiDR~>
huD4,JcF@%quG(C!!&\l!!)TiquD<JQiDR~>
huETShuETSJcF@%quG(C!!&\l!!)TiquD<JQiDR~>
huETShuETSJcF@%quG(C!!&\l!!)TiquD<JQiDR~>
huETShuETSJcF@%quG(C!!&\l!!)TiquD<JQiDR~>
huETShuETSJcF@%quG(C!!&\l!!)TiquD<JQiDR~>
huETShuETSJcF@%quG(C!!&\l!!)TiquD<JQiDR~>
huETShuETSJcF@%quG(C!!&\l!!)TiquD<JQiDR~>
huETShuETSJcF@%quG(C!!&\lp&P$jquD<JQiDR~>
huETShuETSJcF@%quG(C!!&\lp&P$jquD<JQiDR~>
huETShuETSJcF@%quG(C!!&\lp&P$jquD<JQiDR~>
huETShuETSJcF@%quG(C!!&\l!!)fo!!)rsquD<JQiDR~>
huETShuETSJcF@%quG(C!!&\l!!)fo!!)rsquD<JQiDR~>
huETShuETSJcF@%quG(C!!&\l!!)fo!!)rsquD<JQiDR~>
huETShuETSJcF@%quG(C!!&\l!!)fo!!)rsquD<JQiDR~>
huETShuETSJcF@%quG(C!!&\l!!)fo!!)rsquD<JQiDR~>
huETShuETSJcF@%quG(C!!&\l!!)fo!!)rsquD<JQiDR~>
huETShuETSJcF@%quG(C!!&\l!!)fo!!)rsquD<JQiDR~>
huETShuETSJcF@%quG(C!!&\l!!)fo!!)rsquD<JQiDR~>
huETShuETSJcF@%quG(C!!&\l!!)fo!!)rsquD<JQiDR~>
huETShuETSJcF@%quG(C!!&\l!!)fo!!)rsquD<JQiDR~>
huETShuETSJcF@%quG(C!!&\l!!)fo!!)rsquD<JQiDR~>
huETShuETSJcF@%quG(C!!&\l!!)fo!!)rsquD<JQiDR~>
huETShuETSJcF@%quG(C!!&\l!!)fo!!)rsquD<JQiDR~>
huETShuETSJcF@%quG(C!!&\l!!)fo!!)rsquD<JQiDR~>
huETShuETSJcF@%quG(C!!&\l!!)fo!!)rsquD<JQiDR~>
huETShuETSJcF@%quG(C!!&\l!!)fo!!)rsquD<JQiDR~>
huETShuETSJcF@%quG(C!!&\l!!)fo!!)rsquD<JQiDR~>
huETShuETSJcF@%quG(C!!&\l!!)fo!!)rsquD<JQiDR~>
huETShuETSJcF@%quG(C!!&\l!!)fo!!)rsquD<JQiDR~>
huETShuETSJcF@%quG(C!!&\l!!)fo!!)rsquD<JQiDR~>
huETShuETSJcF@%quG(C!!&\l!!)fo!!)rsquD<JQiDR~>
huETShuETSJcF@%quG(C!!&\l!!)fo!!)rsquD<JQiDR~>
huETShuETSJcF@%quG(C!!&\l!!)fo!!)rsquD<JQiDR~>
huETShuETSJcF@%quG(C!!&\l!!)fo!!)rsquD<JQiDR~>
huETShuETSJcF@%quG(C!!&\l!!)fo!!)rsquD<JQiDR~>
huETShuETSJcF@%quG(C!!&\l!!)fo!!)rsquD<JQiDR~>
huETShuETSJcF@%quG(C!!&\l!!)fo!!)rsquD<JQiDR~>
huETShuETSJcF@%quG(C!!&\l!!)fo!!)rsquD<JQiDR~>
huETShuETSJcF@%quG(C!!&\l!!)fo!!)rsquD<JQiDR~>
huETShuETSJcF@%quG(C!!&\l!!)fo!!)rsquD<JQiDR~>
huETShuETSJcF@%quG(C!!&\l!!)fo!!)rsquD<JQiDR~>
huETShuETSJcF@%quG(C!!&\l!!)fo!!)rsquD<JQiDR~>
huETShuETSJcF@%quG(C!!&\l!!)fo!!)rsquD<JQiDR~>
huETShuETSJcF@%quG(C!!&\l!!)fo!!)rsquD<JQiDR~>
huETShuETSJcF@%quG(C!!&\l!!)fo!!)rsquD<JQiDR~>
huETShuETSJcF@%quG(C!!&\l!!)fo!!)rsquD<JQiDR~>
huETShuETSJcF@%quG(C!!&\l!!)fo!!)rsquD<JQiDR~>
huETShuETSJcF@%quG(C!!&\l!!)fo!!)rsquD<JQiDR~>
huETShuETSJcF@%quG(C!!&\l!!)fo!!)rsquD<JQiDR~>
huETShuETSJcF@%quG(C!!&\l!!)fo!!)rsquD<JQiDR~>
huETShuETSJcF@%quG(C!!&\l!!)fo!!)rsquD<JQiDR~>
huETShuETSJcF@%quG(C!!&\l!!)fo!!)rsquD<JQiDR~>
huETShuETSJcF@%quG(C!!&\l!!)fo!!)rsquD<JQiDR~>
huETShuETSJcF@%quG(C!!&\l!!)fo!!)rsquD<JQiDR~>
huETShuETSJcF@%quG(C!!&\l!!)fo!!)rsquD<JQiDR~>
huETShuETSJcF@%quG(C!!&\l!!)fo!!)rsquD<JQiDR~>
huETShuETSJcF@%quG(C!!&\l!!)fo!!)rsquD<JQiDR~>
huETShuETSJcF@%quG(C!!&\l!!)fo!!)rsquD<JQiDR~>
huETShuETSJcF@%quG(C!!&\l!!)fo!!)rsquD<JQiDR~>
huETShuETSJcF@%quG(C!!&\l!!)fo!!)rsquD<JQiDR~>
huETShuETSJcF@%quG(C!!&\l!!)fo!!)rsquD<JQiDR~>
huETShuETSJcF@%quG(C!!&\l!!)fo!!)rsquD<JQiDR~>
huETShuETSJcF@%quG(C!!&\l!!)fo!!)rsquD<JQiDR~>
huETShuETSJcF@%quG(C!!&\l!!)fo!!)rsquD<JQiDR~>
huETShuETSJcF@%quG(C!!&\l!!)fo!!)rsquD<JQiDR~>
huETShuETSJcF@%quG(C!!&\l!!)fo!!)rsquD<JQiDR~>
huETShuETSJcF@%quG(C!!&\l!!)fo!!)rsquD<JQiDR~>
huETShuETSJcF@%quG(C!!&\l!!)fo!!)rsquD<JQiDR~>
huETShuETSJcF@%quG(C!!&\l!!)fo!!)rsquD<JQiDR~>
huETShuETSJcF@%quG(C!!&\l!!)fo!!)rsquD<JQiDR~>
huETShuETSJcF@%quG(C!!&\l!!)fo!!)rsquD<JQiDR~>
huETShuETSJcF@%quG(C!!&\l!!)fo!!)rsquD<JQiDR~>
huETShuETSJcF@%quG(C!!&\l!!)fo!!)rsquD<JQiDR~>
huETShuETSJcF@%quG(C!!&\l!!)fo!!)rsquD<JQiDR~>
huETShuETSJcF@%quG(C!!&\l!!)fo!!)rsquD<JQiDR~>
huETShuETSJcF@%quG(C!!&\l!!)fo!!)rsquD<JQiDR~>
huETShuETSJcF@%quG(C!!&\l!!)fo!!)rsquD<JQiDR~>
huETShuETSJcF@%quG(C!!&\l!!)fo!!)rsquD<JQiDR~>
huETShuETSJcF@%quG(C!!&\l!!)fo!!)rsquD<JQiDR~>
huETShuETSJcF@%quG(C!!&\l!!)fo!!)rsquD<JQiDR~>
huETShuETSJcF@%quG(C!!&\l!!)fo!!)rsquD<JQiDR~>
huETShuETSJcF@%quG(C!!&\l!!)fo!!)rsquD<JQiDR~>
huD4,_Z,_uci3tFT`4ulq#:<or;ZZpJcD):J,~>
huD4,_Z,_uci3tFT`4ulq#:<or;ZZpJcD):J,~>
huD4,_Z,_uci3tFT`4ulq#:<or;ZZpJcD):J,~>
huD4,_Z'T9q#:<oU&Y#jci3tFT`4ulq#:<or;ZZpJcD):J,~>
huD4,_Z'T9q#:<oU&Y#jci3tFT`4ulq#:<or;ZZpJcD):J,~>
huD4,_Z'T9q#:<oU&Y#jci3tFT`4ulq#:<or;ZZpJcD):J,~>
huD4,_Z'T9q#:<oU&Y#jci3tFT`4ulq#:<or;ZZpJcD):J,~>
huD4,_Z'T9q#:<oU&Y#jci3tFT`4ulq#:<or;ZZpJcD):J,~>
huD4,_Z'T9q#:<oU&Y#jci3tFT`4ulq#:<or;ZZpJcD):J,~>
huD4,_Z'T9q#:<oU&Y#jci3tFT`=]cr;ZZpJcD):J,~>
huD4,_Z'T9q#:<oU&Y#jci3tFT`=]cr;ZZpJcD):J,~>
huD4,_Z'T9q#:<oU&Y#jci3tFT`=]cr;ZZpJcD):J,~>
huD4,_Z'T9q#:<oU&Y#jci3tFT`4ulo)JUfJcD):J,~>
huD4,_Z'T9q#:<oU&Y#jci3tFT`4ulo)JUfJcD):J,~>
huD4,_Z'T9q#:<oU&Y#jci3tFT`4ulo)JUfJcD):J,~>
huETShuETS_Z'T9q#:<oU&Y#jci3tFT`4ulo)JUfJcD):J,~>
huETShuETS_Z'T9q#:<oU&Y#jci3tFT`4ulo)JUfJcD):J,~>
huETShuETS_Z'T9q#:<oU&Y#jci3tFT`4ulo)JUfJcD):J,~>
huETShuETS_Z'T9q#:<oU&Y#jci3tFT`4ulo)JUfJcD):J,~>
huETShuETS_Z'T9q#:<oU&Y#jci3tFT`4ulo)JUfJcD):J,~>
huETShuETS_Z'T9q#:<oU&Y#jci3tFT`4ulo)JUfJcD):J,~>
huETShuETS_Z'T9q#:<oU&Y#jci3tFT`4ulo)JUfJcD):J,~>
huETShuETS_Z'T9q#:<oU&Y#jci3tFT`4ulo)JUfJcD):J,~>
huETShuETS_Z'T9q#:<oU&Y#jci3tFT`4ulo)JUfJcD):J,~>
huETShuETS_Z'T9q#:<oU&Y#jci3tFT`4ulo)JUfJcD):J,~>
huETShuETS_Z'T9q#:<oU&Y#jci3tFT`4ulo)JUfJcD):J,~>
huETShuETS_Z'T9q#:<oU&Y#jci3tFT`4ulo)JUfJcD):J,~>
huETShuETS_Z'T9q#:<oU&Y#jci3tFT`4ulo)JUfJcD):J,~>
huETShuETS_Z'T9q#:<oU&Y#jci3tFT`4ulo)JUfJcD):J,~>
huETShuETS_Z'T9q#:<oU&Y#jci3tFT`4ulo)JUfJcD):J,~>
huETShZ*QT_>aK8q#:<oU&Y#jci3tFT`4ulo)JUfJcD):J,~>
huETShZ*QT_>aK8q#:<oU&Y#jci3tFT`4ulo)JUfJcD):J,~>
huETShZ*QT_>aK8q#:<oU&Y#jci3tFT`4ulo)JUfJcD):J,~>
huETSh>[HT_#FB7q#:<oU&Y#jci3tFT`4ulo)JUfJcD):J,~>
huETSh>[HT_#FB7q#:<oU&Y#jci3tFT`4ulo)JUfJcD):J,~>
huETSh>[HT_#FB7q#:<oU&Y#jci3tFT`4ulo)JUfJcD):J,~>
huETSh>[HT_#FB7q#:<oU&Y#jci3tFT`4ulo)JUfJcD):J,~>
huETSh>[HT_#FB7q#:<oU&Y#jci3tFT`4ulo)JUfJcD):J,~>
huETSh>[HT_#FB7q#:<oU&Y#jci3tFT`4ulo)JUfJcD):J,~>
huETSh>[HT_#FB7q#:<oU&TZDdf=t!QiDR~>
huETSh>[HT_#FB7q#:<oU&TZDdf=t!QiDR~>
huETSh>[HT_#FB7q#:<oU&TZDdf=t!QiDR~>
huETSh>[HT_#FB7q#:<oU&TZDdf=t!QiDR~>
huETSh>[HT_#FB7q#:<oU&TZDdf=t!QiDR~>
huETSh>[HT_#FB7q#:<oU&TZDdf=t!QiDR~>
huETSh>[HT_#FB7q#:<oU&TZDdf=t!QiDR~>
huETSh>[HT_#FB7q#:<oU&TZDdf=t!QiDR~>
huETSh>[HT_#FB7q#:<oU&TZDdf=t!QiDR~>
huETSh>[HT_#FB7q#:<oU&TZDdf=t!QiDR~>
huETSh>[HT_#FB7q#:<oU&TZDdf=t!QiDR~>
huETSh>[HT_#FB7q#:<oU&TZDdf=t!QiDR~>
huETSh>[HT_#FB7q#:<oT`9QCeGt1#QN)I~>
huETSh>[HT_#FB7q#:<oT`9QCeGt1#QN)I~>
huETSh>[HT_#FB7q#:<oT`9QCeGt1#QN)I~>
huETSh>[HT_#FB7q#:<oNW8nVJcC<$K)^?~>
huETSh>[HT_#FB7q#:<oNW8nVJcC<$K)^?~>
huETSh>[HT_#FB7q#:<oNW8nVJcC<$K)^?~>
huETSh>[HT_#FB7q#:<oNW8nVJcC<$K)^?~>
huETSh>[HT_#FB7q#:<oNW8nVJcC<$K)^?~>
huETSh>[HT_#FB7q#:<oNW8nVJcC<$K)^?~>
huETSh>[HT_#FB7q#:<oNW8nVJcC<$K)^?~>
huETSh>[HT_#FB7q#:<oNW8nVJcC<$K)^?~>
huETSh>[HT_#FB7q#:<oNW8nVJcC<$K)^?~>
huETSh>[HT_#FB7q#:<o`rEpVJcC<$K)^?~>
huETSh>[HT_#FB7q#:<o`rEpVJcC<$K)^?~>
huETSh>[HT_#FB7q#:<o`rEpVJcC<$K)^?~>
huETSh>[HT_#FB7q#A;5aT)/<JcC<$K)^?~>
huETSh>[HT_#FB7q#A;5aT)/<JcC<$K)^?~>
huETSh>[HT_#FB7q#A;5aT)/<JcC<$K)^?~>
huETSh>[HT_#FB7q#:<oNW8nVJcC<$K)^?~>
huETSh>[HT_#FB7q#:<oNW8nVJcC<$K)^?~>
huETSh>[HT_#FB7q#:<oNW8nVJcC<$K)^?~>
huETSh>[HT_#FB7q#:<oNW8nVJcC<$K)^?~>
huETSh>[HT_#FB7q#:<oNW8nVJcC<$K)^?~>
huETSh>[HT_#FB7q#:<oNW8nVJcC<$K)^?~>
huETSh>[HT_#FB7q#:<oNW8nVJcC<$K)^?~>
huETSh>[HT_#FB7q#:<oNW8nVJcC<$K)^?~>
huETSh>[HT_#FB7q#:<oNW8nVJcC<$K)^?~>
huETSh>[HT_#FB7q#:<oNW8nVJcC<$K)^?~>
huETSh>[HT_#FB7q#:<oNW8nVJcC<$K)^?~>
huETSh>[HT_#FB7q#:<oNW8nVJcC<$K)^?~>
huETSh>[HT_#FB7q#:<oNW8nVJcC<$K)^?~>
huETSh>[HT_#FB7q#:<oNW8nVJcC<$K)^?~>
huETSh>[HT_#FB7q#:<oNW8nVJcC<$K)^?~>
huETSh>[HT_#FB7q#:<oNW8nVJcC<$K)^?~>
huETSh>[HT_#FB7q#:<oNW8nVJcC<$K)^?~>
huETSh>[HT_#FB7q#:<oNW8nVJcC<$K)^?~>
huETSh>[HT_#FB7q#:<oNW8nVJcC<$K)^?~>
huETSh>[HT_#FB7q#:<oNW8nVJcC<$K)^?~>
huETSh>[HT_#FB7q#:<oNW8nVJcC<$K)^?~>
huETSh>[HT_#FB7q#:<oNW8nVJcC<$K)^?~>
huETSh>[HT_#FB7q#:<oNW8nVJcC<$K)^?~>
huETSh>[HT_#FB7q#:<oNW8nVJcC<$K)^?~>
huETSh>[HT_#FB7q#:<oNW8nVJcC<$K)^?~>
huETSh>[HT_#FB7q#:<oNW8nVJcC<$K)^?~>
huETSh>[HT_#FB7q#:<oNW8nVJcC<$K)^?~>
huETSh>[HT_#FB7q#:<oNW8nVJcC<$K)^?~>
huETSh>[HT_#FB7q#:<oNW8nVJcC<$K)^?~>
huETSh>[HT_#FB7q#:<oNW8nVJcC<$K)^?~>
huETSh>[HT_#FB7q#:<oNW8nVJcC<$K)^?~>
huETSh>[HT_#FB7q#:<oNW8nVJcC<$K)^?~>
huETSh>[HT_#FB7q#:<oNW8nVJcC<$K)^?~>
huETSh>[HT_#FB7q#:<oNW8nVJcC<$K)^?~>
huETSh>[HT_#FB7q#:<oNW8nVJcC<$K)^?~>
huETSh>[HT_#FB7q#:<oNW8nVJcC<$K)^?~>
huETSh>[HT_#FB7q#:<oNW8nVJcC<$K)^?~>
huETSh>[HT_#FB7q#:<oNW8nVJcC<$K)^?~>
huETSh>[HT_#FB7q#:<oNW8nVJcC<$K)^?~>
huETSh>[HT_#FB7q#:<oNW8nVJcC<$K)^?~>
huETSh>[HT_#FB7q#:<oNW8nVJcC<$K)^?~>
huETSh>[HT_#FB7q#:<oNW8nVJcC<$K)^?~>
huETShuEZU_#FB7q#:<oNW8nVJcC<$K)^?~>
huETShuEZU_#FB7q#:<oNW8nVJcC<$K)^?~>
huETShuEZU_#FB7q#:<oNW8nVJcC<$K)^?~>
huETSi;`]T_>aK8q#:<oNW8nVJcC<$K)^?~>
huETSi;`]T_>aK8q#:<oNW8nVJcC<$K)^?~>
huETSi;`]T_>aK8q#:<oNW8nVJcC<$K)^?~>
huETSi;`]T_>aK8q#:<oNW8nVJcC<$K)^?~>
huETSi;`]T_>aK8q#:<oNW8nVJcC<$K)^?~>
huETSi;`]T_>aK8q#:<oNW8nVJcC<$K)^?~>
huETSi;`]T_>aK8q#:<oNW8nVJcC<$K)^?~>
huETSi;`]T_>aK8q#:<oNW8nVJcC<$K)^?~>
huETSi;`]T_>aK8q#:<oNW8nVJcC<$K)^?~>
huETSi;`]T_>aK8q#:<oNW8nVJcC<$K)^?~>
huETSi;`]T_>aK8q#:<oNW8nVJcC<$K)^?~>
huETSi;`]T_>aK8q#:<oNW8nVJcC<$K)^?~>
huETSi;`]T_>aK8q#:<oNW8nVJcC<$K)^?~>
huETSi;`]T_>aK8q#:<oNW8nVJcC<$K)^?~>
huETSi;`]T_>aK8q#:<oNW8nVJcC<$K)^?~>
huETSi;`]T_>aK8q#:<oNW8nVJcC<$K)^?~>
huETSi;`]T_>aK8q#:<oNW8nVJcC<$K)^?~>
huETSi;`]T_>aK8q#:<oNW8nVJcC<$K)^?~>
huETSi;`]T_>aK8q#:<oNW8nVJcC<$K)^?~>
huETSi;`]T_>aK8q#:<oNW8nVJcC<$K)^?~>
huETSi;`]T_>aK8q#:<oNW8nVJcC<$K)^?~>
huETSi;`]T_>aK8q#:<oNW8nVJcC<$K)^?~>
huETSi;`]T_>aK8q#:<oNW8nVJcC<$K)^?~>
huETSi;`]T_>aK8q#:<oNW8nVJcC<$K)^?~>
huD7-_>aK8q#:<oNW8nVJcC<$K)^?~>
huD7-_>aK8q#:<oNW8nVJcC<$K)^?~>
huD7-_>aK8q#:<oNW8nVJcC<$K)^?~>
huD7-_>aK8q#:<oNW8nVJcC<$K)^?~>
huD7-_>aK8q#:<oNW8nVJcC<$K)^?~>
huD7-_>aK8q#:<oNW8nVJcC<$K)^?~>
huD7-_>aK8q#:<oNW8nVJcC<$K)^?~>
huD7-_>aK8q#:<oNW8nVJcC<$K)^?~>
huD7-_>aK8q#:<oNW8nVJcC<$K)^?~>
huD7-_>aK8q#:<oNW8nVJcC<$K)^?~>
huD7-_>aK8q#:<oNW8nVJcC<$K)^?~>
huD7-_>aK8q#:<oNW8nVJcC<$K)^?~>
huD:._#FB7q#:<oNW8nVJcC<$K)^?~>
huD:._#FB7q#:<oNW8nVJcC<$K)^?~>
huD:._#FB7q#:<oNW8nVJcC<$K)^?~>
huETSjT#&V^]+96q#:<oNW8nVJcC<$K)^?~>
huETSjT#&V^]+96q#:<oNW8nVJcC<$K)^?~>
huETSjT#&V^]+96q#:<oNW8nVJcC<$K)^?~>
huETSjo>/W^Ae05q#:<oNW8nVJcC<$K)^?~>
huETSjo>/W^Ae05q#:<oNW8nVJcC<$K)^?~>
huETSjo>/W^Ae05q#:<oNW8nVJcC<$K)^?~>
huETSk5Y8X^&J'4q#:<oNW8nVJcC<$K)^?~>
huETSk5Y8X^&J'4q#:<oNW8nVJcC<$K)^?~>
huETSk5Y8X^&J'4q#:<oNW8nVJcC<$K)^?~>
huETSkPtAY]`.s3q#:<oNW8nVJcC<$K)^?~>
huETSkPtAY]`.s3q#:<oNW8nVJcC<$K)^?~>
huETSkPtAY]`.s3q#:<oNW8nVJcC<$K)^?~>
huETSkl:JZ]Dhj2q#:<oa8a!VJcC<$K)^?~>
huETSkl:JZ]Dhj2q#:<oa8a!VJcC<$K)^?~>
huETSkl:JZ]Dhj2q#:<oa8a!VJcC<$K)^?~>
huETSl2US[])Ma1q#A>6a8c&;JcC<$K)^?~>
huETSl2US[])Ma1q#A>6a8c&;JcC<$K)^?~>
huETSl2US[])Ma1q#A>6a8c&;JcC<$K)^?~>
huETSlMp\\\c2X0q#:<oNW8nVJcC<$K)^?~>
huETSlMp\\\c2X0q#:<oNW8nVJcC<$K)^?~>
huETSlMp\\\c2X0q#:<oNW8nVJcC<$K)^?~>
huETSli6e]\GlO/q#:<oNW8nVJcC<$K)^?~>
huETSli6e]\GlO/q#:<oNW8nVJcC<$K)^?~>
huETSli6e]\GlO/q#:<oNW8nVJcC<$K)^?~>
huETSm/Qn^\,QF.q#:<oNW8nVJcC<$K)^?~>
huETSm/Qn^\,QF.q#:<oNW8nVJcC<$K)^?~>
huETSm/Qn^\,QF.q#:<oNW8nVJcC<$K)^?~>
huETSmJm"_[f?%$NW8nVJcC<$K)^?~>
huETSmJm"_[f?%$NW8nVJcC<$K)^?~>
huETSmJm"_[f?%$NW8nVJcC<$K)^?~>
huETSmf3+`JcE1YquD<JJcC?%J,~>
huETSmf3+`JcE1YquD<JJcC?%J,~>
huETSmf3+`JcE1YquD<JJcC?%J,~>
huETSn,N4aJcE.XquD<JJcC?%J,~>
huETSn,N4aJcE.XquD<JJcC?%J,~>
huETSn,N4aJcE.XquD<JJcC?%J,~>
huETSnGi=bJcE+WquD<JJcC?%J,~>
huETSnGi=bJcE+WquD<JJcC?%J,~>
huETSnGi=bJcE+WquD<JJcC?%J,~>
huETSnc/FcJcE(VquD<JJcC?%J,~>
huETSnc/FcJcE(VquD<JJcC?%J,~>
huETSnc/FcJcE(VquD<JJcC?%J,~>
huETSo)JOdJcE%UquD<JJcC?%J,~>
huETSo)JOdJcE%UquD<JJcC?%J,~>
huETSo)JOdJcE%UquD<JJcC?%J,~>
huETSoDeXeJcE"TquD<JJcC?%J,~>
huETSoDeXeJcE"TquD<JJcC?%J,~>
huETSoDeXeJcE"TquD<JJcC?%J,~>
huETSo`+afJcDtSquD<JJcC?%J,~>
huETSo`+afJcDtSquD<JJcC?%J,~>
huETSo`+afJcDtSquD<JJcC?%J,~>
huETSp&FjgJcDqRquD<JJcC?%J,~>
huETSp&FjgJcDqRquD<JJcC?%J,~>
huETSp&FjgJcDqRquD<JJcC?%J,~>
huETSpAashJcDnQquD<JJcC?%J,~>
huETSpAashJcDnQquD<JJcC?%J,~>
huETSpAashJcDnQquD<JJcC?%J,~>
huETSp]('iJcDkPquD<JJcC?%J,~>
huETSp]('iJcDkPquD<JJcC?%J,~>
huETSp]('iJcDkPquD<JJcC?%J,~>
huETSq#C0jJcDhOquD<JJcC?%J,~>
huETSq#C0jJcDhOquD<JJcC?%J,~>
huETSq#C0jJcDhOquD<JJcC?%J,~>
huEQRqZ$BlJcDeNquD<JJcC?%J,~>
huEQRqZ$BlJcDeNquD<JJcC?%J,~>
huEQRqZ$BlJcDeNquD<JJcC?%J,~>
huENQr;ZTnJcDbMquD<JJcC?%J,~>
huENQr;ZTnJcDbMquD<JJcC?%J,~>
huENQr;ZTnJcDbMquD<JJcC?%J,~>
hZ*EPrr;fpJcD_LquD<JJcC?%J,~>
hZ*EPrr;fpJcD_LquD<JJcC?%J,~>
hZ*EPrr;fpJcD_LquD<JJcC?%J,~>
h>d<O!<;lqJcD\KquD<JJcC?%J,~>
h>d<O!<;lqJcD\KquD<JJcC?%J,~>
h>d<O!<;lqJcD\KquD<JJcC?%J,~>
h#I!HJcDYJquD<JJcC?%J,~>
h#I!HJcDYJquD<JJcC?%J,~>
h#I!HJcDYJquD<JJcC?%J,~>
g]-sIJcDVIquD<JJcC?%J,~>
g]-sIJcDVIquD<JJcC?%J,~>
g]-sIJcDVIquD<JJcC?%J,~>
gAgpJJcDSHquD<JJcC?%J,~>
gAgpJJcDSHquD<JJcC?%J,~>
gAgpJJcDSHquD<JJcC?%J,~>
g&LmKJcDPGquD<JJcC?%J,~>
g&LmKJcDPGquD<JJcC?%J,~>
g&LmKJcDPGquD<JJcC?%J,~>
f`1dJJcDSHquD<JJcC?%J,~>
f`1dJJcDSHquD<JJcC?%J,~>
f`1dJJcDSHquD<JJcC?%J,~>
fDk[IJcDVIquD<JJcC?%J,~>
fDk[IJcDVIquD<JJcC?%J,~>
fDk[IJcDVIquD<JJcC?%J,~>
f)PRHJcDYJquD<JJcC?%J,~>
f)PRHJcDYJquD<JJcC?%J,~>
f)PRHJcDYJquD<JJcC?%J,~>
ec5IGJcD\KquD<JJcC?%J,~>
ec5IGJcD\KquD<JJcC?%J,~>
ec5IGJcD\KquD<JJcC?%J,~>
eGo@FJcD_LquD<JJcC?%J,~>
eGo@FJcD_LquD<JJcC?%J,~>
eGo@FJcD_LquD<JJcC?%J,~>
e,T7EJcDbMquD<JJcC?%J,~>
e,T7EJcDbMquD<JJcC?%J,~>
e,T7EJcDbMquD<JJcC?%J,~>
df91EJcDbMquD<JJcC?%J,~>
df91EJcDbMquD<JJcC?%J,~>
df91EJcDbMquD<JJcC?%J,~>
dJs(DJcDeNquD<JJcC?%J,~>
dJs(DJcDeNquD<JJcC?%J,~>
dJs(DJcDeNquD<JJcC?%J,~>
dJs%CJcDhOquD<JJcC?%J,~>
dJs%CJcDhOquD<JJcC?%J,~>
dJs%CJcDhOquD<JJcC?%J,~>
d/WqBJcDkPquD<JJcC?%J,~>
d/WqBJcDkPquD<JJcC?%J,~>
d/WqBJcDkPquD<JJcC?%J,~>
ci<hAJcDnQquD<JJcC?%J,~>
ci<hAJcDnQquD<JJcC?%J,~>
ci<hAJcDnQquD<JJcC?%J,~>
cN!_@JcDqRquD<JJcC?%J,~>
cN!_@JcDqRquD<JJcC?%J,~>
cN!_@JcDqRquD<JJcC?%J,~>
c2[V?JcDtSquD<JJcC?%J,~>
c2[V?JcDtSquD<JJcC?%J,~>
c2[V?JcDtSquD<JJcC?%J,~>
bl@M>JcE"TquD<JJcC?%J,~>
bl@M>JcE"TquD<JJcC?%J,~>
bl@M>JcE"TquD<JJcC?%J,~>
bQ%D=JcE%UquD<JJcC?%J,~>
bQ%D=JcE%UquD<JJcC?%J,~>
bQ%D=JcE%UquD<JJcC?%J,~>
b5_;<JcE(VquD<JJcC?%J,~>
b5_;<JcE(VquD<JJcC?%J,~>
b5_;<JcE(VquD<JJcC?%J,~>
aoD2;JcE+WquD<JJcC?%J,~>
aoD2;JcE+WquD<JJcC?%J,~>
aoD2;JcE+WquD<JJcC?%J,~>
aT)):JcE.XquD<JJcC?%J,~>
aT)):JcE.XquD<JJcC?%J,~>
aT)):JcE.XquD<JJcC?%J,~>
a8bu9JcE1YquD<JJcC?%J,~>
a8bu9JcE1YquD<JJcC?%J,~>
a8bu9JcE1YquD<JJcC?%J,~>
`rGl8JcE4ZquD<JJcC?%J,~>
`rGl8JcE4ZquD<JJcC?%J,~>
`rGl8JcE4ZquD<JJcC?%J,~>
`W,f8JcE4ZquD<JJcC?%J,~>
`W,f8JcE4ZquD<JJcC?%J,~>
`W,f8JcE4ZquD<JJcC?%J,~>
`;f`8JcE4ZquD<JJcC?%J,~>
`;f`8JcE4ZquD<JJcC?%J,~>
`;f`8JcE4ZquD<JJcC?%J,~>
_uKZ8JcE4ZquD<JJcC?%J,~>
_uKZ8JcE4ZquD<JJcC?%J,~>
_uKZ8JcE4ZquD<JJcC?%J,~>
^]+96JcE7[quD<JJcC?%J,~>
^]+96JcE7[quD<JJcC?%J,~>
^]+96JcE7[quD<JJcC?%J,~>
^Ae05JcE:\quD<JJcC?%J,~>
^Ae05JcE:\quD<JJcC?%J,~>
^Ae05JcE:\quD<JJcC?%J,~>
^&J'4JcE=]quD<JJcC?%J,~>
^&J'4JcE=]quD<JJcC?%J,~>
^&J'4JcE=]quD<JJcC?%J,~>
]`.s3JcE@^quD<JJcC?%J,~>
]`.s3JcE@^quD<JJcC?%J,~>
]`.s3JcE@^quD<JJcC?%J,~>
]Dhj2JcEC_quD<JJcC?%J,~>
]Dhj2JcEC_quD<JJcC?%J,~>
]Dhj2JcEC_quD<JJcC?%J,~>
])Ma1JcEF`quD<JJcC?%J,~>
])Ma1JcEF`quD<JJcC?%J,~>
])Ma1JcEF`quD<JJcC?%J,~>
\c2X0JcEIaquD<JJcC?%J,~>
\c2X0JcEIaquD<JJcC?%J,~>
\c2X0JcEIaquD<JJcC?%J,~>
\GlO/JcELbquD<JJcC?%J,~>
\GlO/JcELbquD<JJcC?%J,~>
\GlO/JcELbquD<JJcC?%J,~>
\,QF.JcEOcquD<JJcC?%J,~>
\,QF.JcEOcquD<JJcC?%J,~>
\,QF.JcEOcquD<JJcC?%J,~>
[f6=-JcERdquD<JJcC?%J,~>
[f6=-JcERdquD<JJcC?%J,~>
[f6=-JcERdquD<JJcC?%J,~>
[Jp4,JcEUequD<JJcC?%J,~>
[Jp4,JcEUequD<JJcC?%J,~>
[Jp4,JcEUequD<JJcC?%J,~>
[/U++JcEXfquD<JJcC?%J,~>
[/U++JcEXfquD<JJcC?%J,~>
[/U++JcEXfquD<JJcC?%J,~>
Zi:"*JcE[gquD<JJcC?%J,~>
Zi:"*JcE[gquD<JJcC?%J,~>
Zi:"*JcE[gquD<JJcC?%J,~>
ZMsn)JcE^hquD<JJcC?%J,~>
ZMsn)JcE^hquD<JJcC?%J,~>
ZMsn)JcE^hquD<JJcC?%J,~>
Z2Xe(JcEaiquD<JJcC?%J,~>
Z2Xe(JcEaiquD<JJcC?%J,~>
Z2Xe(JcEaiquD<JJcC?%J,~>
Yl=\'eGoLJJcGKEquD<JJcC?%J,~>
Yl=\'eGoLJJcGKEquD<JJcC?%J,~>
Yl=\'eGoLJJcGKEquD<JJcC?%J,~>
YQ"S&f)PXJJcGNFquD<JJcC?%J,~>
YQ"S&f)PXJJcGNFquD<JJcC?%J,~>
YQ"S&f)PXJJcGNFquD<JJcC?%J,~>
Y5\J%f`1gKW;k'AJcC<$K)^?~>
Y5\J%f`1gKW;k'AJcC<$K)^?~>
Y5\J%f`1gKW;k'AJcC<$K)^?~>
XoAA$gAh!LW;chtdf94FJcC<$K)^?~>
XoAA$gAh!LW;chtdf94FJcC<$K)^?~>
XoAA$gAh!LW;chtdf94FJcC<$K)^?~>
XT&8#h#I0MW;chtdf94FJcC<$K)^?~>
XT&8#h#I0MW;chtdf94FJcC<$K)^?~>
XT&8#h#I0MW;chtdf94FJcC<$K)^?~>
X8`/"hZ*?NW;chtdf94FJcC<$K)^?~>
X8`/"hZ*?NW;chtdf94FJcC<$K)^?~>
X8`/"hZ*?NW;chtdf94FJcC<$K)^?~>
WrE&!i;`NOW;chtdf94FJcC<$K)^?~>
WrE&!i;`NOW;chtdf94FJcC<$K)^?~>
WrE&!i;`NOW;chtdf94FJcC<$K)^?~>
WW)quir>MKdf94FJcC<$K)^?~>
WW)quir>MKdf94FJcC<$K)^?~>
WW)quir>MKdf94FJcC<$K)^?~>
W;chtjT"lQW;chtdf94FJcC<$K)^?~>
W;chtjT"lQW;chtdf94FJcC<$K)^?~>
W;chtjT"lQW;chtdf94FJcC<$K)^?~>
VuH_sk5Y8X!<;rsW;chtdf94FJcC<$K)^?~>
VuH_sk5Y8X!<;rsW;chtdf94FJcC<$K)^?~>
VuH_sk5Y8X!<;rsW;chtdf94FJcC<$K)^?~>
VZ-Vrl2UPZs8VusW;chtdf94FJcC<$K)^?~>
VZ-Vrl2UPZs8VusW;chtdf94FJcC<$K)^?~>
VZ-Vrl2UPZs8VusW;chtdf94FJcC<$K)^?~>
V>gMqli6b\rr;lrW;chtdf94FJcC<$K)^?~>
V>gMqli6b\rr;lrW;chtdf94FJcC<$K)^?~>
V>gMqli6b\rr;lrW;chtdf94FJcC<$K)^?~>
V#LDpmJlt^rVucqW;chtdf94FJcC<$K)^?~>
V#LDpmJlt^rVucqW;chtdf94FJcC<$K)^?~>
V#LDpmJlt^rVucqW;chtdf94FJcC<$K)^?~>
U]1;on,N1`r;ZZpW;chtdf94FJcC<$K)^?~>
U]1;on,N1`r;ZZpW;chtdf94FJcC<$K)^?~>
U]1;on,N1`r;ZZpW;chtdf94FJcC<$K)^?~>
UAk2nnc/Cbqu?QoW;chtdf94FJcC<$K)^?~>
UAk2nnc/Cbqu?QoW;chtdf94FJcC<$K)^?~>
UAk2nnc/Cbqu?QoW;chtdf94FJcC<$K)^?~>
U&P)moDeXeq>^?mW;chtdf94FJcC<$K)^?~>
U&P)moDeXeq>^?mW;chtdf94FJcC<$K)^?~>
U&P)moDeXeq>^?mW;chtdf94FJcC<$K)^?~>
T`4ulrr2ruq>^9kq#C6lW;chtdf94FJcC<$K)^?~>
T`4ulrr2ruq>^9kq#C6lW;chtdf94FJcC<$K)^?~>
T`4ulrr2ruq>^9kq#C6lW;chtdf94FJcC<$K)^?~>
TDnols8E#qs7u`is82kqrr<&Is82kJs+13%s*t~>
TDnols8E#qs7u`is82kqrr<&Is82kJs+13%s*t~>
TDnols8E#qs7u`is82kqrr<&Is82kJs+13%s*t~>
T)\]grVu]opAb$jW;chtdf94FJcC<$K)^?~>
T)\]grVu]opAb$jW;chtdf94FJcC<$K)^?~>
T)\]grVu]opAb$jW;chtdf94FJcC<$K)^?~>
TE"`fs8Voqp&FpiW;chtdf94FJcC<$K)^?~>
TE"`fs8Voqp&FpiW;chtdf94FJcC<$K)^?~>
TE"`fs8Voqp&FpiW;chtdf94FJcC<$K)^?~>
T)\B^o`+ghW;chtdf94FJcC<$K)^?~>
T)\B^o`+ghW;chtdf94FJcC<$K)^?~>
T)\B^o`+ghW;chtdf94FJcC<$K)^?~>
ScA?_oDe^gW;chtdf94FJcC<$K)^?~>
ScA?_oDe^gW;chtdf94FJcC<$K)^?~>
ScA?_oDe^gW;chtdf94FJcC<$K)^?~>
SH&<`o)JUfW;chtdf94FJcC<$K)^?~>
SH&<`o)JUfW;chtdf94FJcC<$K)^?~>
SH&<`o)JUfW;chtdf94FJcC<$K)^?~>
S,`9anc/LeW;chtdf94FJcC<$K)^?~>
S,`9anc/LeW;chtdf94FJcC<$K)^?~>
S,`9anc/LeW;chtdf94FJcC<$K)^?~>
RfE3anc/LeW;chtdf94FJcC<$K)^?~>
RfE3anc/LeW;chtdf94FJcC<$K)^?~>
RfE3anc/LeW;chtdf94FJcC<$K)^?~>
RK**`o)JUfW;chtdf94FJcC<$K)^?~>
RK**`o)JUfW;chtdf94FJcC<$K)^?~>
RK**`o)JUfW;chtdf94FJcC<$K)^?~>
R/d!_oDe^gW;chtdf94FJcC<$K)^?~>
R/d!_oDe^gW;chtdf94FJcC<$K)^?~>
R/d!_oDe^gW;chtdf94FJcC<$K)^?~>
QiHm^o`+ghW;chtdf94FJcC<$K)^?~>
QiHm^o`+ghW;chtdf94FJcC<$K)^?~>
QiHm^o`+ghW;chtdf94FJcC<$K)^?~>
QN-d]p&FpiW;chtdf94FJcC<$K)^?~>
QN-d]p&FpiW;chtdf94FJcC<$K)^?~>
QN-d]p&FpiW;chtdf94FJcC<$K)^?~>
Q2g[\pAb$jW;chtdf94FJcC<$K)^?~>
Q2g[\pAb$jW;chtdf94FJcC<$K)^?~>
Q2g[\pAb$jW;chtdf94FJcC<$K)^?~>
PlLR[p](-kW;chtdf94FJcC<$K)^?~>
PlLR[p](-kW;chtdf94FJcC<$K)^?~>
PlLR[p](-kW;chtdf94FJcC<$K)^?~>
PQ1IZq#C6lW;chtdf94FJcC<$K)^?~>
PQ1IZq#C6lW;chtdf94FJcC<$K)^?~>
PQ1IZq#C6lW;chtdf94FJcC<$K)^?~>
P5k@Yq>^?mW;chtdf94FJcC<$K)^?~>
P5k@Yq>^?mW;chtdf94FJcC<$K)^?~>
P5k@Yq>^?mW;chtdf94FJcC<$K)^?~>
OoP7XqZ$HnW;chtdf94FJcC<$K)^?~>
OoP7XqZ$HnW;chtdf94FJcC<$K)^?~>
OoP7XqZ$HnW;chtdf94FJcC<$K)^?~>
OT5.Wqu?QoW;chtdf94FJcC<$K)^?~>
OT5.Wqu?QoW;chtdf94FJcC<$K)^?~>
OT5.Wqu?QoW;chtdf94FJcC<$K)^?~>
O8o%Vr;ZZpW;chtdf94FJcC<$K)^?~>
O8o%Vr;ZZpW;chtdf94FJcC<$K)^?~>
O8o%Vr;ZZpW;chtdf94FJcC<$K)^?~>
NrSqUrVucqW;chtdf94FJcC<$K)^?~>
NrSqUrVucqW;chtdf94FJcC<$K)^?~>
NrSqUrVucqW;chtdf94FJcC<$K)^?~>
NW8hTrr;lrW;chtdf94FJcC<$K)^?~>
NW8hTrr;lrW;chtdf94FJcC<$K)^?~>
NW8hTrr;lrW;chtdf94FJcC<$K)^?~>
N;r_Ss8VusW;chtdf94FJcC<$K)^?~>
N;r_Ss8VusW;chtdf94FJcC<$K)^?~>
N;r_Ss8VusW;chtdf94FJcC<$K)^?~>
MuWVR!<;rsW;chtdf94FJcC<$K)^?~>
MuWVR!<;rsW;chtdf94FJcC<$K)^?~>
MuWVR!<;rsW;chtdf94FJcC<$K)^?~>
MZ<>LW;chtdf94FJcC<$K)^?~>
MZ<>LW;chtdf94FJcC<$K)^?~>
MZ<>LW;chtdf94FJcC<$K)^?~>
M?!8LW;chtdf94FJcC<$K)^?~>
M?!8LW;chtdf94FJcC<$K)^?~>
M?!8LW;chtdf94FJcC<$K)^?~>
M#[2LW;chtdf94FJcC<$K)^?~>
M#[2LW;chtdf94FJcC<$K)^?~>
M#[2LW;chtdf94FJcC<$K)^?~>
L];o*l2ZD8JcC?%J,~>
L];o*l2ZD8JcC?%J,~>
L];o*l2ZD8JcC?%J,~>
LAuf)lMuM9JcC?%J,~>
LAuf)lMuM9JcC?%J,~>
LAuf)lMuM9JcC?%J,~>
L&Z](li;V:JcC?%J,~>
L&Z](li;V:JcC?%J,~>
L&Z](li;V:JcC?%J,~>
K`?T'm/V_;JcC?%J,~>
K`?T'm/V_;JcC?%J,~>
K`?T'm/V_;JcC?%J,~>
KE$K&mf7q=JcC<$J,~>
KE$K&mf7q=JcC<$J,~>
KE$K&mf7q=JcC<$J,~>
JcC<$JcC<$JcG9?J,~>
JcC<$JcC<$JcG9?J,~>
JcC<$JcC<$JcG9?J,~>
JcC<$JcC<$JcG9?J,~>
JcC<$JcC<$JcG9?J,~>
JcC<$JcC<$JcG9?J,~>
JcC<$JcC<$JcG9?J,~>
JcC<$JcC<$JcG9?J,~>
JcC<$JcC<$JcG9?J,~>
JcC<$JcC<$JcG9?J,~>
JcC<$JcC<$JcG9?J,~>
JcC<$JcC<$JcG9?J,~>
JcC<$JcC<$JcG9?J,~>
JcC<$JcC<$JcG9?J,~>
JcC<$JcC<$JcG9?J,~>
JcC<$JcC<$JcG9?J,~>
JcC<$JcC<$JcG9?J,~>
JcC<$JcC<$JcG9?J,~>
JcC<$JcC<$JcG9?J,~>
JcC<$JcC<$JcG9?J,~>
JcC<$JcC<$JcG9?J,~>
JcC<$JcC<$JcG9?J,~>
JcC<$JcC<$JcG9?J,~>
JcC<$JcC<$JcG9?J,~>
JcC<$JcC<$JcG9?J,~>
JcC<$JcC<$JcG9?J,~>
JcC<$JcC<$JcG9?J,~>
JcC<$JcC<$JcG9?J,~>
JcC<$JcC<$JcG9?J,~>
JcC<$JcC<$JcG9?J,~>
JcC<$JcC<$JcG9?J,~>
JcC<$JcC<$JcG9?J,~>
JcC<$JcC<$JcG9?J,~>
JcC<$JcC<$JcG9?J,~>
JcC<$JcC<$JcG9?J,~>
JcC<$JcC<$JcG9?J,~>
JcC<$JcC<$JcG9?J,~>
JcC<$JcC<$JcG9?J,~>
JcC<$JcC<$JcG9?J,~>
JcC<$JcC<$JcG9?J,~>
JcC<$JcC<$JcG9?J,~>
JcC<$JcC<$JcG9?J,~>
JcC<$JcC<$JcG9?J,~>
JcC<$JcC<$JcG9?J,~>
JcC<$JcC<$JcG9?J,~>
JcC<$JcC<$JcG9?J,~>
JcC<$JcC<$JcG9?J,~>
JcC<$JcC<$JcG9?J,~>
JcC<$JcC<$JcG9?J,~>
JcC<$JcC<$JcG9?J,~>
JcC<$JcC<$JcG9?J,~>
JcC<$JcC<$JcG9?J,~>
JcC<$JcC<$JcG9?J,~>
JcC<$JcC<$JcG9?J,~>
JcC<$JcC<$JcG9?J,~>
JcC<$JcC<$JcG9?J,~>
JcC<$JcC<$JcG9?J,~>
JcC<$JcC<$JcG9?J,~>
JcC<$JcC<$JcG9?J,~>
JcC<$JcC<$JcG9?J,~>
JcC<$JcC<$JcG9?J,~>
JcC<$JcC<$JcG9?J,~>
JcC<$JcC<$JcG9?J,~>
JcC<$JcC<$JcG9?J,~>
JcC<$JcC<$JcG9?J,~>
JcC<$JcC<$JcG9?J,~>
JcC<$JcC<$JcG9?J,~>
JcC<$JcC<$JcG9?J,~>
JcC<$JcC<$JcG9?J,~>
JcC<$JcC<$JcG9?J,~>
JcC<$JcC<$JcG9?J,~>
JcC<$JcC<$JcG9?J,~>
JcC<$JcC<$JcG9?J,~>
JcC<$JcC<$JcG9?J,~>
JcC<$JcC<$JcG9?J,~>
JcC<$JcC<$JcG9?J,~>
JcC<$JcC<$JcG9?J,~>
JcC<$JcC<$JcG9?J,~>
JcC<$JcC<$JcG9?J,~>
JcC<$JcC<$JcG9?J,~>
JcC<$JcC<$JcG9?J,~>
JcC<$JcC<$JcG9?J,~>
JcC<$JcC<$JcG9?J,~>
JcC<$JcC<$JcG9?J,~>
%%EndData
showpage
%%Trailer
end
%%EOF
